				
# Astronomy observation log - 20150824				
# by Piero Dalle Pezze				
				
Date	19/07/2015			
Time	15:50-16:45			
Location	Cambridge, UK			
Altitude	12m			
Temperature	23C (wind: 27km/h)			
Seeing	4 - Poor seeing			
Transparency	5 - Clear			
Telescopes	Tele Vue 60 F6			
Eyepieces	Nagler 13mm, Nagler 7mm, Vixen 5mm SLV, Nagler 3.5mm			
Filters	Lunt Herschel Wedge			
Target	Cons	Type	Power	Notes
Sun	-	Star	28x, 51x, 72x, 103x	It was generally windy, but sometimes the wind was mild for a few minutes. There were not many sunspots today. One was located at about the centre and was formed by a penumbra region followed by four little spots. A little bit North of this spot region, there was a chain of six spots. Faculae were detectable around these two areas when the wind was calm. 51x was generally the best magnification for today, whereas 72x could be used when the wind was mild.
				
				
				
Date	22/07/2015			
Time	22:50-0:00			
Location	Cambridge, UK			
Altitude	12m			
Temperature	13C (wind: 0km/h)			
Seeing	2 - Slight undulations			
Transparency	4 - Partly clear			
Telescopes	Tele Vue 60 F6			
Eyepieces	Panoptic 24mm, Nagler 13mm, Nagler 7mm, Vixen 5mm SLV			
Filters	Astronomik OIII			
Target	Cons	Type	Power	Notes
Beta	Sco	Dbl Star	15x, 28x	Acrab. Nice double star. The colours were not very clear because of the low position just above the horizon. Still very pretty though. Already split at 15x
Omega	Sco	Dbl Star	15x, 28x	Largely separated double star, if it is a double.
Nu	Sco	Dbl Star	15x, 28x	This is tighter than Beta, but at 28x the two stars are separated.
M11	Sct	Opn CL	15x, 28x, 51x, 72x	The first time I observe M11 this year. Gorgeous. Stars were visible with averted vision at 51x and 72x. At this last magnification, the cluster appeared really nice and clear. Apart from the limited field of view, it seems to me that the Vixen SLV works really nicely also on DSO.
NGC6992/ 6960	Cyg	SN Rem	15x +/- OIII, 28x + OIII	Veil Nebula. At 28x (2.2mm exit pupil) + OIII, the nebula was difficult to identify. The view improved by choosing an exit pupil of 4mm. Without OIII the nebula is completely invisible. With the OIII, the Eastern component was easier to see than the western. The sky was not completely dark and the was some haze in the sky.
NGC7063	Cyg	Opn CL	15x, 28x	I casually found this open cluster when exploring the sky in Cygnus. It a medium-small open cluster with about 10-15 stars visible directly and others via averted vision. Quite pretty.
NGC6940	Cyg	Opn CL	15x	Large spread open cluster. I was a bit disappointed when I saw this open cluster as it did not show any striking feature, but just a collection of disconnected stars of similar magnitude, luminosity and colour. 
NGC6871	Cyg	Opn CL	15x	Just passing across Cygnus' body and I stopped on this lovely open cluster. 
M39	Cyg	Opn CL	15x, 28x	Nice medium size open cluster. 20-25 stars visible. Others required averted vision.
NGC7082	Cyg	Opn CL	15x, 28x	Open cluster close to M39. It is spread and its stars do not have specific features.
				
				
				
Date	30/07/2015			
Time	23:00-23:40			
Location	Cambridge, UK			
Altitude	12m			
Temperature	12C (wind: 0km/h)			
Seeing	2 - Slight undulations			
Transparency	3 - Somewhat clear			
Telescopes	Tele Vue 60 F6			
Eyepieces	Vixen 5mm SLV			
Filters	Variable Polarising Filter (VPF)			
Target	Cons	Type	Power	Notes
Moon	-	Satellite	72x + VPF	Full Moon. Cloudy sky, but the moon was visible from time to time. From Montes Apenninus, Eratosthenes at South, Aristoteles and Eudoxus at North. At far East of the Moon, Grimaldi and Riccioli. At North of the Moon, Plato. At North West, Atlas and Hercules. Finally I observed Theophilus in the centre-West.
				
				
				
Date	01/08/2015			
Time	16:40-17:20			
Location	Cambridge, UK			
Altitude	12m			
Temperature	22C (wind: 19 km/h)			
Seeing	3 - Moderate seeing			
Transparency	4 - Partly clear			
Telescopes	Tele Vue 60 F6			
Eyepieces	Nagler 7mm, Vixen 5mm SLV, Nagler 3.5mm			
Filters	Lunt Herschel Wedge, Variable Polarising Filter (VPF)			
Target	Cons	Type	Power	Notes
Sun	-	Star	51x, 72x, 103x	There were three major sunspots, one of this was surrounded by a nice penumbra. In this penumbra at 103x it was possible to discern some internal structure. Faculae were also visible around all these sunspots. When the wind was somehow calmer, granulation was also visible in the centre of the star. Very pretty.
				
				
				
Date	02/08/2015			
Time	0:10-1:15			
Location	Cambridge, UK			
Altitude	12m			
Temperature	14C (wind: 13km/h)			
Seeing	2 - Slight undulations			
Transparency	5 - Clear			
Telescopes	Tele Vue 60 F6			
Eyepieces	TV Plossl 20mm			
Filters	Variable Polarising Filter (VPF)			
Target	Cons	Type	Power	Notes
Moon	-	Satellite	18x	Almost full Moon. From my bedroom (which is towards South), I opened the window, and a beautiful Moon was there. Following Shaun (Pig)'s recent advice on SGL to look at the moon at low power, I had a lovely time at 18x in combination with a VPF for dimming the brightness. Really gorgeous and still crisp image of our satellite. Interestingly, I found a specific target for my plossl 20mm, which has not been much used recently. Competing with the 24 Pan on a full-ish Moon, it is a clear winner showing a fully flat and wholly focused image. For this target, the fov is not a problem either as the plossl 20mm covers about 5 times the Moon diameter, which is enough for giving a feeling of observing a target floating on space. I quickly tried the tele-extender 2x in combination with the plossl 20mm (36x), but the image was already degraded and the details were not as crisp as the image at 18x. Although not a serious session out because of a fever, it was still an enjoyable time spent seeing our satellite. Most of the time was spent observing the Mares Imbrium, Serenitatis, Tranquillitatis, the wonderful Mare Crisium, Mare Fecunditatis, Oceanus Procellarum, Mare Insularum and Mare nubium. Some crater were observed too: Langrenus, Plato, Aristoteles, Eudoxus, Kepler, Tycho, Copernicus, Dionysius, and Menelaus.
				
				
				
Date	05/08/2015a			
Time	09:15-10:00			
Location	Venice Area, Italy			
Altitude	25m			
Temperature	30C (no wind)			
Seeing	1 - Perfect seeing			
Transparency	5 - Clear			
Telescopes	Tele Vue 60 F6			
Eyepieces	Nagler 7mm			
Filters	Lunt Herschel Wedge, Orion Green Filter n.58			
Target	Cons	Type	Power	Notes
Sun	-	Star	51x+GF58	This was the first time I observed the Sun with an Orion green filter. Granulation improved noticeably and the contrast between sunspots and solar surface was largely enhanced. I did not find the observation of the Sun in green as distracting and I think the green filter will replace the variable polarising filter in the future.
				
				
				
Date	05/08/2015b			
Time	22:00-0:30			
Location	Venice Area, Italy			
Altitude	12m			
Temperature	27C (no wind)			
Seeing	1 - Perfect seeing			
Transparency	5 - Clear			
Telescopes	Celestron 114mm F8			
Eyepieces	Celestron SMA 25mm, Orion Sirius Plossl 10mm, Nagler 3.5mm, Orion Barlow Shorty 2x			
Filters	Astronomik UHC, OIII			
Target	Cons	Type	Power	Notes
M11	Sct	Opn CL	36x, 72x	Stars started being resolved and a pretty expanded cloud was visible at 36x. At 72x the object was still bright and allowed to see more stars. Really pretty view. 
M22	Sgr	Glob CL	36x, 72x	Large globular cluster. Stars were not resolved although a granulation was detectable at both 36x and 72x.
M28	Sgr	Glob CL	36x	Located very close to Lambda Sgr (Kaus Borealis), this globular cluster is much smaller than M22. Stars were clearly not resolved and it appeared as a little soft cloud.
M7	Sco	Opn CL	36x	Ptolemy Cluster. To me, this is one of the best open clusters out there. It is large, made of dimmer and brighter stars, and its shape is majestic. 
M6	Sco	Opn CL	36x	Butterfly Cluster. Another pretty open cluster in Sagittarius, but much smaller than M7. It is located at North-West of M7.
Epsilon	Sgr	Star	36x, 72x	Kaus Australis. Although this is not a binary star, there is a little dimmer star next to it. The couple seem to have different colours although I could be wrong on this because the target was too close to the horizon. The difference in brightness was striking and made a lovely couple.
M69	Sgr	Glob CL	36x	From Epsilon Sgr (Kaus Australis), this globular cluster is located at North-East via easy star hopping. It is quite dim and appears as a little cloud not clearly distinguishable from the background sky. 
M70	Sgr	Glob CL	36x	From M69, I reached this other globular cluster, which is even dimmer than M69. It was almost invisible. 
M54	Sgr	Glob CL	36x	From Zeta Sgr (Ascella), M54 is easily reachable. Its brightness is similar to M69, therefore slightly easier to identify than M70. 
Zeta	Sgr	Dbl Star	36x, 91x, 182x, 260x	Ascella. I tried to split this double. It seems very tight. I am not sure the companion was separated at 260x.
Gamma	Del	Dbl Star	36x, 91x	Wonderful orange-blue double star. The two were already separated at 36x, but the view was better at 91x in my opinion. I also tried Alpha and Beta Del, but I was not able to split them.
M31	And	Galaxy	36x	Only the core was visible. It appeared like a large cloud with well defined perimeter. M32 was detectable (see M32), whereas M110 was not. 
M32	And	Galaxy	36x	It appeared like a little cloud South of M31. This cloud was relatively packed.
Eta	Cas	Dbl Star	36x, 72x	This beautiful double star is located at North-East from Schedir. It is a bit tight although already separated at 36x.
NGC281	Cas	CL+Neb	36x +/- OIII or UHC	Pacman Nebula. I was able to detect some nebulosity around the star HIP4121C with the OIII filter without knowing exactly where this was. This nebulosity was not visible without filter or with a UHC filter to my eye. The associated cluster did not reveal specific features. 
Moon	-	Satellite	260x	I was just curious to see how the terminator appeared at this high magnification. In contrast to what I thought, the image was quite crisp likely due to the steady air. Looking at our Satellite using such a high magnification provided me with a nice flyby over these lovely details. Apart from the terminator, the Moon appeared as a flat land with almost homogeneous features. 
				
				
				
Date	06/08/2015			
Time	22:00-23:50			
Location	Venice Area, Italy			
Altitude	12m			
Temperature	26C (no wind)			
Seeing	1 - Perfect seeing			
Transparency	4 - Partly clear			
Telescopes	Celestron 114mm F8			
Eyepieces	Celestron SMA 25mm, Orion Sirius Plossl 10mm, Orion Barlow Shorty 2x			
Target	Cons	Type	Power	Notes
M9	Oph	Glob CL	36x	Due to the poor transparency, M9 was tricky to identify. It was a grey smudge slightly distinguishable from the background sky. 
M26	Sct	Opn CL	36x, 72x	From M11, follow the chain of stars leading to an asterism reminding me of a fisherman's hook. M26 is right below this asterism. It was quite small and made of faint stars. I guess this was the reason why I struggle so much to identify this cluster with my TV60. It showed 5-6 dim stars and a few faint stars visible via averted vision.
NGC6664	Sct	Opn CL	36x	This open cluster appeared dimmer than M26 and somehow less interesting to me. This might have been due to the terrible combination of light pollution and humidity which made targets quite hard to find tonight. 
NGC6738	Aql	Opn CL	36x	Use the pair of stars forming a triangle with Epsilon and Zeta Aql, as a pointer to reach this open cluster. Its stars are quite separated. 
NGC6709	Aql	Opn CL	36x	From NGC6738, move 2.5 degrees west and you find this cluster. This target is much prettier than NGC6738 and formed by a mixture of moderate and dim stars.
M15	Peg	Glob CL	36x, 72x, 91x	Large globular cluster near Epsilon Peg (Enif). Increasing the magnification did not allow separation of any star. However a bit of granulation was detectable.
NGC7789	Cas	Opn CL	36x	From Beta Cas (Caph), this cluster is located at South-West. It was beautiful and emerged from the surrounding stars.
				
				
				
Date	08/08/2015			
Time	22:00-02:00			
Location	Lorenzago di Cadore, Italy			
Altitude	883m			
Temperature	15C (no wind)			
Seeing	2 - Slight undulations			
Transparency	6 - Very clear			
Telescopes	Tele Vue 60 F6			
Eyepieces	Panoptic 24mm, Nagler 13mm, Nagler 7mm, Nagler 3.5mm			
Filters	Astronomik UHC, OIII			
Target	Cons	Type	Power	Notes
M13	Her	Glob CL	15x, 51x, 103x	It was possible to distinguish some star at the cluster edge and shining stars were also visible in the centre.
M92	Her	Glob CL	15x	A reduced version of M13. Some stars were detectable on the border. 
M51	CVn	Galaxy	15x, 28x 	Whirlpool galaxy. The Main and secondary spiral galaxies were visible. With averted vision it was possible to see a soft binding between the two galaxies.
M101	UMa	Galaxy	15x, 28x	Pinwheel galaxy. A grey faint patch which was much larger than M51. It was visible with direct vision but no structure was detectable.
M81	UMa	Galaxy	15x, 28x	Bode's galaxy. The oval shape with a slightly brighter core was visible for this galaxy.
M82	UMa	Galaxy	15x, 28x	Cigar galaxy. The elongated shape of M82 was quite obvious and made a wonderful image with M81.
IC4665	Oph	Opn CL	15x	Amazing open cluster although no many faint stars were visible. 
NGC7000	Cyg	Neb	15x+UHC	North America Nebula. The North America continent was well defined, particularly the Mexico and east USA. The area is rich of gas and the UHC filter seems to be perfect to highlight this nebulosity. 
NGC6992/ 6960	Cyg	SN Rem	15x+OIII	Veil Nebula. The Eastern and Western parts for this nebula were easily visible. Central filaments from North were a bit more difficult to spot but still observable. These appeared as vertical filaments reaching the core of the nebula.
M22	Sgr	Glob CL	15x	Lovely globular cluster. It appeared very similar to M13. Outer stars were resolved and shined nicely.
M28	Sgr	Glob CL	15x	This cluster was a little grey smudge, much smaller than M22.
M8	Sgr	Neb	15x+UHC	Lagoon Nebula. Giant nebula covering the cluster of stars. The nebula extended considerable at North and South of the star cluster.
NGC6530	Sgr	Opn CL	15x+UHC	Cluster inside the Lagoon Nebula. It was nicely covered by the nebula. 
M20	Sgr	CL+Neb	15x+UHC	Trifid Nebula. The red part appeared as a grey nebula. The blue part was invisible. Much smaller than M8 but was still gorgeous. 
M21	Sgr	Opn CL	15x+UHC	Cluster located at North of the Trifid nebula and connected by a chain of stars.
IC4685	Sgr	Neb	15x+UHC	Soft nebula surrounding the star V3903 Sgr. It is near M8 and M20.
NGC6526	Sgr	Neb	15x+UHC	Very soft nebula located in the area between M8 and M20.
NGC6595	Sgr	CL+Neb	15x+UHC	A little cluster surrounded by a soft little nebula.
IC1284	Sgr	Neb	15x+UHC	Soft nebula just below the Sagittarius Star Cloud. 
M24	Sgr	Star Cluster	15x+UHC	Sagittarius Star Cluster. Fabulous target. Many faint shining stars were detectable and it was almost impossible to count them all. 
M18	Sgr	Opn CL	15x+UHC	Small open cluster located between M17 and M24. Quite pretty. 
M17	Sgr	CL+Neb	15x+UHC	The nebula was a bit smaller than M8, but still very distinct and with clear bounds. A few stars were also visible.
NGC6605	Ser	Opn CL	15x+UHC	Quite compact open cluster near M16 and M17. Not too difficult to observe. 
M16	Ser	CL+Neb	15x+UHC	The nebula reminded me of a mail stamp. Very pretty and the shape was clearly defined. 
NGC6604	Ser	CL+Neb	15x+UHC	Faint nebula plus cluster just above M16. At 15x this object is just above M16 and it should not be confused with NGC6625. NGC6604 has a nebula, NGC6625 has not.
NGC6625	Sct	Opn CL	15x+UHC	Open cluster near NGC6604. The two are quite similar apart from the nebula present in NGC6604.
M27	Vul	Pln Neb	15x+UHC, 51x	I preferred the view without a filter for this target and under this sky. No real detail but a very circular shape reminding me of an apple. 
M56	Lyr	Opn CL	15x	Easy open cluster of small size. This benefits from a dark sky though. 
M39	Cyg	Opn CL	15x	Fantastic open cluster mainly formed by bright stars but some surrounding dust made this object really beautiful.
IC5146	Cyg	CL+Neb	15x+UHC	Cocoon Nebula. I do not think I really saw this object as there was a lot of dust in the area. I moved East from M39. If I spotted it, it appeared like a small patch of grey colour, not much distinguishable from the rest of the nearby dust.
IC1396	Cep	CL+Neb	15x+UHC	Elephant's Trunk Nebula. From the Garnet star I could spot some faint nebula, or dust, in the area but no trace of any trunk.
M31	And	Galaxy	15x, 28x	Andromeda galaxy. Visible at naked eye. Very beautiful view with Andromeda spanning largely in the eyepiece.
M32	And	Galaxy	15x, 28x	Easily seen below M31.
M110	And	Galaxy	15x, 28x	A bit more difficult to see than M32, but still detectable.
M33	Tri	Galaxy	15x	Triangulum galaxy. Large galaxy visible via direct vision. It has a circular shape without structure.
M34	Per	Opn CL	15x	Wonderful open cluster easily visible and reachable from Gamma And (Almaak).
NGC752	And	Opn CL	15x	To me this is even prettier than M34 because of the surrounding stars at South possibly. Lovely organisation.
NGC891	And	Galaxy	15x	This galaxy is located between Gamma And (Almaak) and M34. It was very faint and appeared as small and slightly elongated to me.
NGC1502	Cam	Opn CL	15x	Little open cluster gem at the end of multiple chains of stars. Some of these stars are faint but their alignment is gorgeous to see.
NGC869/ 884	Per	Opn CL	15x	Double cluster. Visible at naked eye. Under this dark sky, it was even more beautiful because of the darker background sky and emerging faint stars. 
Stock2	Cas	Opn CL	15x	I was surprised to see so many stars inside this cluster. It really benefits from a dark sky. 
M103	Cas	Opn CL	15x	Very distinct in the sky. Dim stars were visible.
NGC281	Cas	CL+Neb	15x+UHC	Pacman Nebula. Nice cluster plus nebulosity surrounding the brightest star. This nebulosity was somehow circular. 
Mel20	Per	Opn CL	15x	Alpha Per Moving Cluster. The most beautiful object I saw in this session. Absolutely stunning. 
				
				
				
Date	10/08/2015			
Time	19:50-20:20			
Location	Venice Area, Italy			
Altitude	25m			
Temperature	25C (15km/h)			
Seeing	3 - Moderate seeing			
Transparency	3 - Somewhat clear			
Telescopes	Tele Vue 60 F6			
Eyepieces	Nagler 7mm			
Filters	Lunt Herschel Wedge			
Target	Cons	Type	Power	Notes
Sun	-	Star	51x	Some sun spots were located in the South hemisphere of the sun. They formed a compact group surrounded by a penumbra region. Faculae or granulation were not detectable due to the wind. Really nice to see the Sun and some clouds forming thin layers over the Sun surface, during the sunset. All together they form a suggestive image.
				
				
				
Date	12/08/2015			
Time	11:00-12:00			
Location	Venice Area, Italy			
Altitude	25m			
Temperature	32C (5km/h)			
Seeing	2 - Slight undulations			
Transparency	4 - Partly clear			
Telescopes	Tele Vue 60 F6			
Eyepieces	Orion Sirius Plossl 10mm, Vixen 5mm SLV, Orion Barlow Shorty 2x			
Filters	Lunt Herschel Wedge, Orion Green Filter n.58			
Target	Cons	Type	Power	Notes
Sun	-	Star	72x +/- GF58	I was surprised to see that the Orion plossl was quite good when compared with the Vixen SLV. Only a group of sunspots were visible today on the West part of the Sun, and penumbra regions were also clearly visible. The Vixen controlled the colours and the image a little bit better, but this was marginal to my eye. The real difference was the eyepiece ergonomics and the Vixen SLV was much more comfortable because of the longer eye relief. Still an interesting test though. 
				
				
				
Date	13/08/2015a			
Time	2:00-3:00			
Location	Venice Area, Italy			
Altitude	12m			
Temperature	25C (no wind)			
Seeing	1 - Perfect seeing			
Transparency	4 - Partly clear			
Telescopes	Celestron 114mm F8			
Eyepieces	Celestron SMA 25mm, Orion Sirius Plossl 10mm, Orion Barlow Shorty 2x			
Target	Cons	Type	Power	Notes
M30	Cap	Glob CL	36x, 91x	Not very easy to spot due to the severe light pollution in this area. The stars at the edge were resolved without much difficulty even with this small telescope aperture. At 91x this globular was much easier to see and resolve. It is not very bright and a moderate light polluted sky should be enough for showing this cluster nicely even with small-ish telescopes.
Neptune	Aqr	Planet	36x, 91x, 182x	Not too difficult to spot due to moderately bright nearby stars. At 36x it appeared as a grey tinted star and was detectable using a star atlas. At 91x its shape was still punctiform and possibly a hint of blue-green was added to the grey tint spotted at 36x. This colour might have been altered due to the light pollution in the sky though. At 182x, the planet appeared as a very small circle or large pinpoint object of blue-ish / grey colour. 
Uranus	Psc	Planet	36x	Uranus and nearby stars in Pisces were entirely covered by light pollution. Therefore, it was very difficult to spot the location of this target. Eventually I did not find it for this reason after some research and comparison with a star atlas.
				
				
Date	13/08/2015b			
Time	18:45-19:30			
Location	Venice Area, Italy			
Altitude	25m			
Temperature	40C (no wind)			
Seeing	1 - Perfect seeing			
Transparency	5 - Clear			
Telescopes	Tele Vue 60 F6			
Eyepieces	Nagler 13mm, Nagler 7mm, Vixen SLV 5mm, Nagler 3.5mm, Orion Barlow Shorty 2x			
Filters	Lunt Herschel Wedge, Orion Green Filter n.58			
Target	Cons	Type	Power	Notes
Sun	-	Star	28x, 51x, 72x, 103x, 144x, 206x + GF58	Three groups of sunspots. Two of these were at the level of the Equator, whereas the third, largest one, was located at South-East of the star. Penumbra regions were present on all these sunspots. Faculae were very prominent on the surrounding area of the third group of sunspots. Granulation was clear from 51x and higher magnification throughout the Sun surface. At 28x the view of the Sun was stunning, but at magnifications between 51x and 103x, sunspots, penumbrae, faculae and granulation were clear and evident. The green filter improved the view noticeably making small sunspots, faculae and granulation more obvious. In addition it removes a fair amount of brightness delivering a more relaxed observation.
				
				
Date	13/08/2015c			
Time	22:20-0:40			
Location	Venice Area, Italy			
Altitude	12m			
Temperature	26C (0-10km/h)			
Seeing	1 - Perfect seeing			
Transparency	4 - Partly clear			
Telescopes	Celestron 114mm F8			
Eyepieces	Celestron SMA 25mm, Orion Sirius Plossl 10mm, Nagler 7mm, Orion Barlow Shorty 2x			
Filters	Astronomik OIII			
Target	Cons	Type	Power	Notes
Theta	Ser	Dbl Star	36x, 91x	Alya. Only separated from the nearby star. The two stars have similar colour (grey) and intensity. 
NGC6755	Aql	Opn CL	36x, 91x	A medium size open cluster. I was not particularly impressed with this target.
M22	Sgr	Glob CL	36x, 72x, 91x	Already at 36x, this open cluster showed a large area. Stars were not resolved and the target appeared like a cloud visible via direct observation. Light pollution was too severe for catching some detail.
M25	Sgr	Opn CL	36x, 91x	Lovely open cluster. The little aggregation of stars visible in the centre was easier to see at high magnification and was just beautiful. To me, this is the treasure inside this cluster.
M24	Sgr	Opn CL	36x	Sagittarius Star Cluster. About 50 stars were visible. Really pretty.
M20	Sgr	CL+Neb	36x	Trifid Nebula. Viewed quickly and without nebula filter.
M8	Sgr	CL+Neb	36x	Lagoon Nebula. Viewed quickly and without nebula filter.
NGC6530	Sgr	Opn CL	36x	Cluster inside the Lagoon Nebula. With this aperture, this open cluster was easier to see. As for M25, it reminds me of a little collection of gems inside an already stunning open cluster.
M72	Aqr	Glob CL	36x, 72x, 91x	Very faint globular cluster, barely seen at all magnifications I tried.
M73	Aqr	Asterism	36x	An asterism of 4 stars. Not really special.
NGC7009	Aqr	Pln Neb	36x, 72x, 91x, 130x, 182x	Saturn Nebula. From M72 and M73, this target is relatively easy to find. It is almost attached to a star and has line of three stars at North. The planetary nebula was identifiable at 72x and a OIII greatly improved the observation. At magnifications higher than 91x, it showed a little disc without visible detail. This disc was clearly visible at 130x + OIII filter.
NGC1245	Per	Opn CL	36x	Medium size open cluster located at West of Mirphak. About 10-15 stars were visible.
NGC663	Cas	Opn CL	36x	Medium size open cluster. Really pretty dense target showing stars of different brightness.
NGC659	Cas	Opn CL	36x	Visible on the same field of view of NGC663, this is much smaller, but still nice to see. 
Neptune	Aqr	Planet	36x, 72x, 91x, 182x	Tonight, it was clearly distinguishable as a grey blue pinpoint star but with firm light. This pinpoint shaped object became slightly larger, almost like a little circle, at 91x and 182x. The blue colour was a bit more evident at these magnifications.
Uranus	Psc	Planet	36x, 72x, 91x, 182x	Due to the presence of soft wind, the humidity decreased reducing the effects of light pollution. The Pisces constellation was not visible at naked eye, but more dim stars were visible through the finder and eyepiece. To find Uranus, I star-hopped from Gamma Peg (Algenib), reaching Delta, Epsilon and finally Zeta Psc. Uranus was very next to Zeta Psc. Uranus' colour is slightly greener than Neptune, and was visible as a little circle already at 91x. This was much more evident at 182x. 
Zeta	Psc	Mlt Star	36x, 91x	Two stars were clearly distinguished at 36x. One was a bit dimmer. The brighter component seemed white / yellow, whereas the dimmer star was grey / blue. Due to the presence of severe light pollution in the area where this star was observed, these colours might not be correct though.
				
				
Date	22/08/2015a			
Time	1:00-2:00			
Location	Cambridge, UK			
Altitude	12m			
Temperature	19C (no wind)			
Seeing	1 - Perfect seeing			
Transparency	5 - Clear			
Telescopes	Tele Vue 60 F6			
Eyepieces	Panoptic 24mm, Vixen SLV 5mm			
Target	Cons	Type	Power	Notes
NGC869/ 884	Per	Opn CL	15x	Double cluster. Quite high in the sky. Wonderful contrast.
M38	Aur	Opn CL	15x	Although Auriga is low at this time of the year (and night hour), a fair amount of stars was still detectable.
M31	And	Galaxy	15x	Andromeda Galaxy. Largely extended galaxy. 
M33	Tri	Galaxy	15x	Triangulum Galaxy. From this location, M33 is detectable via direct vision, but appears as a soft grey patch without any structure.
M57	Lyr	Pln Neb	15x, 72x	Ring Nebula. The ring was detectable via direct observation. To me, an exit pupil around 1mm is better than 0.8mm, just to make this object a bit brighter.
M81	UMa	Galaxy	15x	Bode's Galaxy. The oval shape was visible but very tiny. 
M82	UMa	Galaxy	15x	Cigar Galaxy. Elongated shape was visible, but very tiny as for M81.
Mel20	Per	Opn CL	15x	Alpha Per Moving Cluster. Lovely open cluster.
M45	Tau	Opn CL	15x	Pleiades. Still low in the sky, but always beautiful. Very happy to see it again.
				
				
Date	22/08/2015b			
Time	13:30-15:20			
Location	Cambridge, UK			
Altitude	12m			
Temperature	28C (30km/h)			
Seeing	3 - Moderate seeing			
Transparency	4 - Partly clear			
Telescopes	Tele Vue 60 F6			
Eyepieces	TV Plossl 20mm, Nagler 7mm, Vixen SLV 5mm, Nagler 3.5mm, Bresser SA 2x			
Filters	Lunt Herschel Wedge, Orion Green Filter n.58			
Target	Cons	Type	Power	Notes
Sun	-	Star	18x, 36x, 51x, 72x, 103x + GF58	Today, there was a group of sunspots located in the South Hemisphere. They were really pretty and five of them were surrounded by penumbra regions. This group was compacted and the image of dark spots, penumbra and the solar surface seemed quite artistic. I used the GF58 most of the time as this enhances the observation for all solar features and provides much more comfort by reducing the white glare that this object has when observed during the day. Although the Plossl has less glass than the Naglers, I have to say that the Naglers deliver a very pretty image also for this target. As far as I can tell, the view is just perfect to my eye. I look forward to comparing the plossl 20 + powermate 2.5x and the Nagler 7mm. Really lovely session today
				
				
Date	23/08/2015			
Time	21:00-22:00			
Location	Cambridge, UK			
Altitude	12m			
Temperature	15C (12 km/h)			
Seeing	2 - Slight undulations			
Transparency	5 - Clear			
Telescopes	Tele Vue 60 F6			
Eyepieces	Plossl 20mm, Nagler 13mm, Nagler 7mm, Vixen SLV 5mm, Bresser SA 2x			
Target	Cons	Type	Power	Notes
Moon	-	Satellite	18x, 36x, 51x, 56x, 72x	Waxing Gibbous 57%. The naglers work really well with the Moon and to my eye they contain internal reflection a bit better than the Plossl 20mm. The dark side behind the terminator was visible easily and the image remained very crisp to the edge. Wonderful view.