				
# Astronomy observation log - Current				
# by Piero Dalle Pezze				
				
Date	16/05/2016			
Time	21:50-23:00			
Lunar Phase	Waxing Gibbous 79%			
Location	Cambridge, UK			
Altitude	12m			
Temperature	10C (W 8 km/h)			
Seeing	1 - Perfect seeing			
Transparency	5 - Clear			
Telescopes	Tele Vue 60 F6			
Eyepieces	Vixen SLV 9, Vixen SLV 5, PM2.5x			
Target	Cons	Type	Power	Notes
Jupiter	-	Planet	72x, 100x, 180x	The seeing was very good tonight. No GRS, but NEB, SEB, NTB, and the two polar regions were visible. In the NEB I identified two festoons and one of them was particularly large. It was placed on the Centre-West side of the NEB. 
Moon	-	Satellite	72x, 100x, 180x	The Moon was nicely crisp up to 180x. In particular, the Copernicus crater was lovely too see. Very nice details on the Mons Apenninus.
Epsilon	Boo	Dbl Star	72x, 100x, 180x	Izar. The secondary was white / green and was placed near the first diffraction ring at 100x and 180x. Together with the orange primary the couple forms a really nice target. Good test for seeing too. 
Epsilon	Lyr	Dbl Star	72x, 100x, 180x	A hint of elongated stars was detectable at 72x, but a more obvious split was again at 100x and 180x.
				
Date	21/05/2016			
Time	22:10-1:00			
Location	Venice Area, Italy			
Lunar Phase	Full Moon 100%			
Altitude	8m			
Temperature	19C (0 km/h)			
Seeing	1 - Perfect seeing			
Transparency	4 - Partly clear			
Telescopes	SkyWatcher 200 F6			
Eyepieces	Delos 12, Delos 8, Vixen SLV 5, Bresser SA 2x, PM2.5x			
Target	Cons	Type	Power	Notes
Mars	-	Planet	150x, 200x, 240x, 300x, 375x	Angular diameter: 18.3 arcsec, central-meridian latitude: 123. Homogeneous landscape covering Amazonis, Memnonia, and Tharsis. Near the border dark features were detectable but without a clear structure. These were slightly more visible at high power. A hint of North polar was also detectable.
Saturn	-	Planet	150x, 200x, 240x, 300x, 375x	Great view! The Cassini division was visible almost throughout the planet. At the border of the rings, it was a clear black line. On the planet it seemed that there was a bit of rings shadow. A tiny bit of planet shadow seemed to be projected on the back side of the rings. The equatorial belt was nicely observable and to me this was nicer at +300x magnifications. Titan and Rhea were well visible. Between Titan and Saturn there was Dione. Between Rhea and Saturn there was Thetys. Tethys and Dione were not straightforward to spot initially, but after a bit they were easily visible. I tried my best to spot Enceladus, but the Moon was just too bright.
Moon	-	Satellite	150x, 200x, 240x, 300x, 375x	Being full, I only observed the border at South-West. High magnifications worked well to reduce the Moon's glare. A wonderful flyby!
				
Date	24/05/2016			
Time	19:00-19:30			
Location	Cambridge, UK			
Altitude	12m			
Temperature	11C (N 15 km/h)			
Seeing	3 - Moderate seeing			
Transparency	4 - Partly clear			
Telescopes	Tele Vue 60 F6			
Eyepieces	Vixen SLV 9, Vixen SLV 5			
Filters	Lunt Herschel Wedge, Solar Continuum filter, Orion Green filter n.58			
Target	Cons	Type	Power	Notes
Sun	-	Star	40x, 72x +/- SCF or GF58	The image is greener with the SCF than the GF58. To be honest, I started with the SCF and I only noticed this after replacing it with the GF58. The latter shows the Sun more like with a pale green/blue-green tint in comparison with the SCF. As far as contrast concerns, which is what all of us are interested in , there is an increase in contrast with the SCF. This is not huge, but is noticeable. I tested this with my 9mm and 5mm Vixen SLV twins. Granulation was possibly the feature which was more evident with the SCF than the GF58, but also the "eyelashes" on the penumbra region and faculae were a bit crisper with the SCF. All these features were not impossible to spot with the GF58, but they were just a bit less defined and clear. Right now it is quite windy outside (15km/h N), and although I am not an expert, I found that my GF58 shows granulation nicely when the wind is almost absent. The SCF showed somehow the same if not a bit more granulation now, in presence of wind, compared to the GF58, in absence of wind. I guess this is due to the tighter passing band that this filter has compared to the GF58. To me, the same seems valid for the internal lines on the penumbra region ("eyelashes"). Unfortunately due to the wind, I could not try 100x and 180x successfully, but considering my previous observations at these magnifications with the GF58, I would suspect the SCF will just outperform the former. So, how much can I quantify this improvement..? It is not huge, but is there. It is definitely not as near as the improvement one would get between filterless view and SCF/GF58. To my eye and under these medium quality seeing, if filterless is 0 and SCF is 1 a GF58 would sit at .75 . I know that the GF58 shows better views under good/excellent seeing. Hopefully the SCF will improve proportionally.
				
Date	26/05/2016a			
Time	17:30-18:10			
Location	Cambridge, UK			
Altitude	12m			
Temperature	19C (N 8 km/h)			
Seeing	2 - Slight undulations			
Transparency	5 - Clear			
Telescopes	Tele Vue 60 F6			
Eyepieces	Vixen SLV 9, Vixen SLV 5, PM2.5x			
Filters	Lunt Herschel Wedge, Solar Continuum filter			
Target	Cons	Type	Power	Notes
Sun	-	Star	40x, 72x, 100x, 180x + SCF	The SCF works well particularly at low and medium power (40x, 1.5mm e.p.; 72x, 0.8mm e.p.). Lines on penumbra regions and granulation is more obvious with the SCF than when observed with the GF58. At high power (100x, 3.6mm e.p.), under these conditions the view show similar details. At very high power (180x, 0.2mm e.p.) I feel the GF58 shows more detail. The image seems quite dark with the SCF and faculae are not so easy to spot to my eye. I could not spot granulation, while it was very noticeable with the GF58 as far as I remember. So far, I might use the SCF at low medium power and the GF58 at high power, or just use the 9mm with the SCF and the 5mm with the GF58 so that I don't need to swap the filter each time.
				
Date	26/05/2016b			
Time	22:20-23:00			
Location	Cambridge, UK			
Lunar Phase	Waning Gibbous 74%			
Altitude	12m			
Temperature	12C (E 10 km/h)			
Seeing	3 - Moderate seeing			
Transparency	4 - Partly clear			
Darkness	18.74			
Telescopes	Tele Vue 60 F6			
Eyepieces	Vixen SLV 9, Vixen SLV 5, PM2.5x			
Target	Cons	Type	Power	Notes
Jupiter	-	Planet	40x, 72x, 100x, 180x	The daylight is getting longer as shown by the darkness measurement. Jupiter showed the two equatorial belts and the South polar region. I could not spot the GRS and in fact it was not out at this time (no false negative). I believe a festoon was discernable though. No moon event tonight. The best magnification was 72x.
Mars	-	Planet	40x, 72x, 100x, 180x	From the UK Mars is really low and the little aperture does not help. A white glitter was visible on the North pole suggesting a hint of the polar cap. I sometimes had the feeling to see a darker region on the West side of the planet, but the seeing was not good enough to be sure. The best magnification was 72x tonight.
				
Date	28/05/2016a			
Time	1:00-1:30			
Location	Cambridge, UK			
Lunar Phase	Waning Gibbous 64%			
Altitude	12m			
Temperature	10C (NE 11 km/h)			
Seeing	1 - Perfect seeing			
Transparency	5 - Clear			
Telescopes	Tele Vue 60 F6			
Eyepieces	Vixen SLV 9, Vixen SLV 5, PM2.5x			
Target	Cons	Type	Power	Notes
Saturn	-	Planet	72x, 100x, 180x	Nice view with this steady sky. The Cassini division was detectable on the outer border of the rings at all the magnifications. This was the first time I was able to spot it at 180x. Titan was out too, but I could not spot Rhea. I could not spot the equatorial belt either unfortunately. Generally, it was a lovely view of the most beautiful planet.
Mars	-	Planet	72x, 100x, 180x	Compared to last time, the seeing was much better tonight. Said this, I could not discern any features on this planet except for the colour of course. It was intense red. The polar region was not detectable either. I suspect it was still showing us its {\it boring} face. 
				
Date	28/05/2016b			
Time	23:30-2:00			
Location	Cambridge, UK			
Lunar Phase	Third Quarter 53%			
Altitude	12m			
Temperature	9C (NNE 6 km/h)			
Seeing	1 - Perfect seeing			
Transparency	5 - Clear			
Darkness	19.6			
Telescopes	Tele Vue 60 F6			
Eyepieces	Panoptic 24, Delos 12, Vixen SLV 9, Delos 8, PM2.5x			
Target	Cons	Type	Power	Notes
Jupiter	-	Planet	100x	The seeing was pretty good. Beside the two equatorial belts and the polar regions, I could spot one large festoon on the NEB. The GRS was not out tonight.
Saturn	-	Planet	100x	The North equatorial belt was detectable to my eye. A hint of the Cassini division on the edge was noticeable even at 100x. Titan but not Rhea was visible. 
Mars	-	Planet	100x	Mars' diameter was 18.6 arcsec and the central-meridian longitude was 102 degrees. Some darker areas were visible after spending a bit of time. These were Mare Sirenum and Mare Erythraeum. They only reveal a slightly darker area rather than a marked feature.
M4	Sco	Glob CL	45x	It forms a triangle with the stars Alpha Sco (Antares) and Sigma Sco (Al Niyat). The sky at South is not the best from here. I could vaguely spot this target with averted vision. Weather permitting, I will try this in Italy with the dobson 8".
M80	Sco	Glob CL	45x	Star-hopping from Alpha Sco (Antares), through Sigma Sco (Al Niyat) and Omicron Sco. It was faint but detectable. Featureless.
M19	Oph	Glob CL	45x	I star-hopped from Saturn which was located just North. Alternatively, one could star-hop from Theta Oph. There are three pairs of stars North-East of M19. These pairs somehow point to M19. This cluster is quite faint from this altitude.
M5	Ser	Glob CL	45x	Star-hopping from Alpha Ser (Unukalhai) towards Epsilon Ser, Psi Ser, 10 Ser and finally 5 Ser. Lovely globular cluster. It should be amazing with more aperture. Some granulation was detectable.
M12	Oph	Glob CL	45x	Star-hopping from Lambda Oph (Marfik) towards 14 Oph. Distinguishable for the stars at its left. Due to the light pollution it was a bit faint but visible with direct vision. 
M10	Oph	Glob CL	45x	Star-hopping from M12. This does not have nearby stars.
Alpha	Her	Dbl Star	15x, 45x	Rasalgethi. I did not try to resolve this lovely double star, but just used it as pointer with Alpha Oph (Rasalhague) to 71-72 Oph.  
NGC6633	Oph	Opn CL	15x	Star-hopping from Alpha Her (Rasalgethi) to 71-72 Oph. One of my favourite open clusters.
IC4756	Ser	Opn CL	15x	Graff's cluster. Continuing from NGC6633. Another nice open cluster.
Theta	Ser	Dbl Star	15x	Alya. Continuing from IC4756 (Graff's cluster). Well separated but still lovely double star.
				
Date	06/06/2016			
Time	23:00-23:40			
Location	Cambridge, UK			
Lunar Phase	Waxing Crescent 4%			
Altitude	12m			
Temperature	13C (E 11 km/h)			
Seeing	1 - Perfect seeing			
Transparency	5 - Clear			
Darkness	19			
Telescopes	Tele Vue 60 F6			
Eyepieces	Delos 12, Vixen SLV 9, Delos 8, PM2.5x			
Target	Cons	Type	Power	Notes
Jupiter	-	Planet	100x, 112x	Two equatorial belts, South polar region and a line above the NEB which I think it was the North temperate belt. One festoon near the centre of the NEB. No GRS. It was clear that the two equatorial belts were not homogeneous lines, but that there were features on them. However, it was too difficult to spot shapes. Jupiter was below 40 degrees above the horizon though. With the Vixen, colours were more vivid and in particular browns/dark reds on the belts were somehow a bit nicer.
Mars	-	Planet	100x, 112x	Essentially the same features were visible, but the contrast seemed higher with the Vixen SLV. Mare Acidalium was particularly darker. Mare Erythraeum was also more noticeable with the Vixen. Overall it was a very interesting view with both.
Saturn	-	Planet	100x, 112x	I saw Titan and Rhea with both the Vixen and the Delos. Equatorial belts with both. A hint of the Cassini division on the edge with the Vixen only. This is the first time I spotted it at 100x. At 72x-75x is generally easier, but over 100x it is not easy to catch that contrast. Rhea was slightly easier with the Vixen.
M13	Her	Glob CL	30x, 45x	Granulation was detectable at 45x.
Alpha	Her	Dbl Star	112x	Rasalgethi. A gem.Split at 112x. One red, the other grey/green.
				
Date	11/06/2016			
Time	22:50-23:30			
Location	Venice Area, Italy			
Lunar Phase	Waxing Crescent 44%			
Altitude	8m			
Temperature	20C (E 12 km/h)			
Seeing	4 - Poor seeing			
Transparency	3 - Somewhat clear			
Telescopes	SkyWatcher 200 F6			
Eyepieces	Delos 12, Delos 8, Vixen SLV 5, Bresser SA 2x, VIP 2x			
Target	Cons	Type	Power	Notes
Mars	-	Planet	150x, 200x, 240x	Angular diameter 18.2 arcsec, longitude: 320 deg. Syrtis Major was well defined and formed a sort of triangle with Iapygian and Mare Tyrrhenum. The seeing was not sufficiently good to spot differences between the VIP and the Bresser SA. B. Possibly the colour using the VIP was slightly more natural.
Saturn	-	Planet	150x, 200x, 240x	Titan, Rhea and Tethys were visible. The Cassini division was detectable time to time on the outer border of the rings. The equatorial belt was visible. No real differences between the VIP and the bresser due to the poor seeing. Again, the VIP seemed to show a more natural colour.
				
Date	13/06/2016			
Time	21:30-22:00			
Lunar Phase	Waxing Gibbous 73%			
Location	Cambridge, UK			
Altitude	12m			
Temperature	15C (W 6 km/h)			
Seeing	4 - Poor seeing			
Transparency	2 - Poor			
Telescopes	Tele Vue 60 F6			
Eyepieces	Vixen SLV 9, Vixen SLV 5, VIP 1.76x, 2x, 2.39x, 2.6x			
Target	Cons	Type	Power	Notes
Moon	-	Satellite	70x, 80x, 96x, 104x, 126x, 144x, 172x, 187x	Unfortunately, the Baader VIP barlow set at 2.39x and 2.6x does not reach focus on the TV60. 
				
Date	20/06/2016			
Time	22:00-23:00			
Lunar Phase	Full Moon 100%			
Location	Cambridge, UK			
Altitude	12m			
Temperature	16C (NW 5 km/h)			
Seeing	3 - Moderate seeing			
Transparency	3 - Somewhat clear			
Telescopes	Tele Vue 60 F6			
Eyepieces	Vixen SLV 9, Delos 8mm, Vixen SLV 5, VIP 1.76x, PM2.5x			
Target	Cons	Type	Power	Notes
Moon	-	Satellite	70x, 79x, 100x, 112x, 126x	Only the Lower East side showed some appreciable detail. It seemed to me that the image was more stable with the VIP than the PM2.5x. It just appeared a touch crisper with both the Vixen 9 and Delos 8. Said this, the VIP was at 1.76x, whereas the PM at 2.5x, so the magnification / exit pupil was not completely fair for the PM. 
Jupiter	-	Planet	70x, 79x, 100x, 112x, 126x	I could spot the GRS with the vixen 9 + VIP 1.76x at 70x on the East side of the SEB. I think this is the first time I spot it at this magnification. Also it was almost obvious to see it. 
Saturn	-	Planet	70x, 79x, 100x, 112x, 126x	The Cassini division was detectable on the outer part of the rings at 70x and 79x. I sometimes add the feeling of seeing it at 126x too. I could not spot it with my 9mm + PM2.5x tonight. 
Mars	-	Planet	70x, 79x, 100x, 112x, 126x	Mare Cimmerium was visible in the Southern hemisphere with all the eyepieces or barlow/telextender. A hint of the North polar cap was detectable and appeared as a faint white light.
				
Date	10/07/2016			
Time	22:00-23:00			
Lunar Phase	Waxing Crescent 33%			
Location	Cambridge, UK			
Altitude	12m			
Temperature	15C (W 35 km/h)			
Seeing	4 - Poor seeing			
Transparency	2 - Poor			
Telescopes	Tele Vue 60 F6			
Eyepieces	Delos 8mm, VIP 2x, 2.6x			
Target	Cons	Type	Power	Notes
Moon	-	Satellite	80x, 120x	The VIP reaches focus if placed before the diagonal on the TV60. It seems to work with all the spacer, including the 2.6x. This is a positive news as it limits the length of VIP+eyepiece and the weight that the diagonal has to sustain. It also means that the Leica Zoom could be used with the VIP when the VIP is used before the diagonal. I believe the Zeiss Zoom would also reach focus with the VIP placed before the diagonal as there is about 1.5 inch travel left. The problem with the Zeiss Zoom is that it will not reach focus when used without the VIP. Possibly it would if the diagonal is removed, but that is not a nice option.
				
Date	06/08/2016a			
Time	9:00-10:30			
Location	Cambridge, UK			
Altitude	12m			
Temperature	18C (NW 13 km/h)			
Seeing	2 - Slight undulations			
Transparency	5 - Clear			
Telescopes	Tele Vue 60 F6			
Eyepieces	Docter 12.5mm, Delos 12mm, PM2.5x			
Filters	Lunt Herschel Wedge, Solar Continuum filter			
Target	Cons	Type	Power	Notes
Sun	-	Star	28.8x, 30x, 72x, 75x + SCF	Seeing was quite good this morning. First of all, the views were lovely with both these eyepieces. As reference I will use the image posted by SGL member `paulastro` (\href{https://stargazerslounge.com/topic/274930-august-6th-white-light-ar2570-ar2571/}{here}. I could not spot differences on the group of sunspots located near the centre of the Sun, but there were minor differences on the group located at North-West. Although the seeing where the image was shot was not good, it is possible to notice two small horizontally aligned sunspots on the left of one bigger sunspot. Those two sunspots were not visible at 30x with my Delos 12mm but were visible with the Docter 12.5mm at 28.8x on axis. At the edge, they were not visible with the Docter either. Both the eyepieces showed those two sunspots at 72x and 75x, respectively, when a PM2.5x was used. Granulation was also more evident with the Docter. One thing I noticed with the Docter when observing the Sun is the presence of a {\it thin bright-ish ring} at the centre of the fov. This ring disappears completely if I protect my eye from environmental light with my hands. Doing so, the full background is just black. If the eyepiece is rotated, the ring does not. After carefully checking, this ring is completely absent in the night or in diurnal observation. My Delos 12mm does not show this ring, but to me at least, eyeplacement is more critical with the Delos 12mm than the Docter on solar observation. Both these eyepieces show a bit of field curvature with my Tele Vue 60mm. Given the larger fov, the Docter shows a bit more near the edge. The required adjustment is very minor I would say though (~1mm re-focus). Unfortunately I cannot test these two eyepieces with my Baader VIP on solar observation because this barlow requires too much inward refocus than the available travel on my TV60. The eyepieces reach focus if the barlow is placed before the Lunt Hershel Wedge, but as far as I know doing so is dangerous and should be avoided. 
				
Date	06/08/2016b			
Time	22:00-0:00			
Lunar Phase	Waxing Crescent 13%			
Location	Worsted St Roman Rd, CB, UK			
Altitude	12m			
Temperature	15C (NW 10 km/h)			
Seeing	2 - Slight undulations			
Transparency	5 - Clear			
Darkness	20.6			
Telescopes	Tele Vue 60 F6			
Eyepieces	Panoptic 24, Docter 12.5mm, Delos 12mm			
Filters	Astronomik OIII			
Target	Cons	Type	Power	Notes
NGC869/ 884	Per	Opn CL	15x, 28.8x, 30x	Double cluster. Gorgeous with both the Docter 12.5mm and Delos 12mm, but the Docter showed more (8-10) faint stars near the cores. Some of these were detectable with the Delos using averted vision, some were not, whereas they were visible with direct vision through the Docter. Stars appeared noticeably smaller with the Docter.
NGC6992	Cyg	SN Rem	15x + OIII	Veil nebula. Easily visible. Shades were also detectable as irregularities in the structure.
IC1340	Cyg	SN Rem	15x + OIII	Veil nebula. The {\it hook} was visible and was very nice. Some detail was detectable after spending some time. Not sure I saw the two hooks though.
NGC6979	Cyg	SN Rem	15x + OIII	Veil nebula. This was also detectable as well as some long filament moving towards South.
NGC6974	Cyg	SN Rem	15x + OIII	Veil nebula. Pickering's Triangular Wisp. Certainly visible as triangular shape. Filaments towards South also visible (The thin Thread ?).
NGC6960	Cyg	SN Rem	15x + OIII	Veil nebula. Easily observable. Great view.
NGC281	Cas	CL+Neb	15x + OIII	Pacman nebula. For the first time I saw the Pacman shape. Nice one!
NGC7000	Cyg	Neb	15x + OIII	North America Nebula. The full continent was easily visible and the contour of the Mexican Gulf was well marked. I think I saw hints of the Pelican Nebula too but not sure.
M31	And	Galaxy	15x, 28.8x, 30x	Andromeda galaxy. Both the Delos 12mm and the Docter showed similar detail about this galaxy. 
M32	And	Galaxy	28.8x, 30x	Both the Delos 12mm and the Docter showed similar detail about this galaxy. 
M110	And	Galaxy	28.8x, 30x	Both the Delos 12mm and the Docter showed similar detail about this galaxy. 
M33	Tri	Galaxy	15x, 28.8x, 30x	Triangulum galaxy. Roughly the same detail between Delos 12mm and Docter 12.5mm. I checked this as I was in the area. In my opinion, this target looks better with exit pupils longer than 2mm.
M81	UMa	Galaxy	28.8x, 30x	Bode's galaxy. I felt the Docter showed a bit more contrast than the Delos 12mm with respect to the background sky (which should be darker in the Delos 12mm as far as exit pupil concerns though).
M82	UMa	Galaxy	28.8x, 30x	Cigar galaxy. The Docter clearly showed this galaxy as a line (or cigar) with direct vision. The contour was quite well marked. The Delos 12mm showed the Cigar shape but with less contrast and only via averted vision. The galaxy was visible with direct vision with the Delos 12mm but it's shape was noticeably less defined. 
Mel20	Per	Opn CL	28.8x, 30x	Alpha Persei Moving cluster. Similar detail between the Docter and the Delos 12mm. The complete target was roughly contained in the Docter's fov (3 deg).
NGC457	Cas	Opn CL	28.8x, 30x	Dragonfly cluster. Very similar detail apart from a bit smaller stars with the Docter.
				
Date	07/08/2016			
Time	21:00-21:40			
Lunar Phase	Waxing Crescent 22%			
Location	Cambridge, UK			
Altitude	12m			
Temperature	19C (WSW 34 km/h)			
Seeing	4 - Poor seeing			
Transparency	5 - Clear			
Telescopes	Tele Vue 60 F6			
Eyepieces	Docter 12.5mm, Delos 12mm, Baader VIP 2.0x			
Target	Cons	Type	Power	Notes
Moon	-	Satellite	28.8x, 30x +/- VIP ~3x	The wind was too strong for comparing features between these two eyepieces. The views were just lovely without VIP, but unfortunately unstable at higher magnifications. Regarding colour, I did not see any major axial chromatic aberration (chromatic aberration of the first type) with the two eyepieces. Of note, my TV60 shows a minimal amount of colour fringe (purple fringe when the Moon is moved to the extreme right, yellow fringe when it is moved to the extreme left) with all my eyepieces. This because the TV60 is a doublet and not a triplet refractor. This colour fringe was very minimal and only noticeable near the edge. Both the Delos and the Docter showed minimal transverse chromatic aberration (chromatic aberration of the second type or lateral colour). Both the Docter and the Delos showed chromatic aberration of the exit pupil as a blue ring at the field stop. This blue ring seemed thinner to my eye. With the Baader VIP transverse chromatic aberration seemed almost removed on both the eyepieces. This test should be repeated with the dobson.
				
Date	08/08/2016			
Time	22:00-23:20			
Lunar Phase	Waxing Crescent 31%			
Location	Cambridge, UK			
Altitude	12m			
Temperature	15C (NW 16 km/h)			
Seeing	2 - Slight undulations			
Transparency	5 - Clear			
Darkness	19.7			
Telescopes	Tele Vue 60 F6			
Eyepieces	Docter 12.5mm, Delos 12mm, Baader VIP 2.0x			
Target	Cons	Type	Power	Notes
M10	Oph	Glob CL	28.8x, 30x	Fuzzy blob. I could not spot any difference between the Docter and the Delos. Low targets, little aperture, low power.
M12	Oph	Glob CL	28.8x, 30x	As for M10.
M13	Her	Glob CL	28.8x, 30x +/- VIP 2x	Both the Docter and the Delos 12mm showed the same amount of detail. When the Baader VIP was used in 2x mode (between the diagonal and the eyepiece), the Delos 12mm (now 75x) showed a larger grey blob with an hint of granulation, whereas the Docter 12.5mm (now 72x) showed some more granulation and hints of bright stars. These appeared as few little glitters across the target.
Saturn	-	Planet	28.8x, 30x + VIP 2x or ~3x	Saturn was fairly low when observed. When the Baader VIP was used in 2x mode (between the diagonal and the eyepiece), a hint of Cassini division on the lateral sides of the rings was detectable with both the eyepieces (Docter: 72x, Delos 75x). Titan, but not Rhea was visible with both. When the Baader VIP in 2x mode was placed between the telescope and the diagonal (I have not calculated the exact distance within the diagonal yet, but I suspect it is around 3x), the view through the Docter was sharper. The faint line of the Cassini division on the lateral parts of the rings disappeared with both. When Saturn was moved next to the field stop, its size was a bit reduced with the Docter 12.5mm suggesting the presence of angular magnification distortion (AMD) in the Docter. To me this distortion is noticeable in the Docter 12.5mm if one compares a target between on axis and at the edge straightaway. To my eye the size of Saturn was reduced by not more than 15-20\% between on axis and at the field stop. When Saturn was placed at about 2/3 of the field of view from the centre, I only noticed the reduction in size when I was really looking for it. I could not notice any reduction in size, but I could notice a change in shape with the Delos 12mm when observing Saturn. This change in shape was more noticeable when observing the Moon. The Delos (and the other Tele Vue eps) and the Docter are quite different about RD and AMD. Assuming a non-tracking mount is used (if a tracking mount is used, neither of the two is a concern at all as these distortions are visible near the edge) AND assuming that the target is observed edge-to-edge, if an observer is more sensitive to changes in target size (but not shape) then an eyepiece minimising AMD should be preferred, whereas if an observer is more sensitive to changes in target shape then an eyepiece with little RD will be appreciated. Of course the two eyepieces have different field of view and therefore this comparison is not completely fair. In the docter at approximately 70 degrees from the centre using the Delos' field stop as a reference, AMD was very marginal to my eye at least. Neither the Delos or the Docter showed CA of the first type to my eye. Both showed a minimal amount of CA of the second type. For the Docter this was a bit smaller. This showed blue/purple when targets were placed on the right edge, and yellow when placed on the left edge. The Baader VIP reduced this CA furthermore and CA was very hardly noticeable in the Docter. Please note that every eyepiece I have tried showed minimal CA near the edge on very bright targets (e.g. the Moon, Jupiter and Venus) and I believe part of it is due to the doublet TV60. The amount of this coloured fringe is very small and I was never concerned about it. These two eyepieces show less lateral CA than my previous T6 Naglers (13mm, 7mm, 3.5mm). Between the Docter and the Delos, the Docter shows a bit less lateral CA. Regarding the CA of the exit pupil (coloured ring at the field stop, sometimes called ring of fire), both the Docter and the Delos 12mm showed a coloured ring at the field stop when bright targets were moved away from the centre of the fov. In the Docter this ring was a bit thinner.
Epsilon	Boo	Dbl Star	28.8x, 30x + VIP ~3x	Izar. I need a better evening for this. The double was visible on the first diffraction ring with both the eyepieces. When the target was moved to the field stop the companion merged with the main star in both the eyepieces. Stars were smaller in the Docter.
				
Date	09/08/2016			
Time	21:20-22:20			
Lunar Phase	Waxing Crescent 40%			
Location	Cambridge, UK			
Altitude	12m			
Temperature	12C (NW 10 km/h)			
Seeing	2 - Slight undulations			
Transparency	5 - Clear			
Darkness	19.4			
Telescopes	Tele Vue 60 F6			
Eyepieces	Docter 12.5mm, Delos 12mm, Baader VIP 2.0x			
Target	Cons	Type	Power	Notes
Alpha	Lyr	Star	28.8x, 30x	With eye placement on axis but placing these targets at the right and left edges (just a hair before the coloured field stop ring) a minor CA purple fringe is detectable for Vega and it is symmetric between right and left edges. On axis, there was no coloured fringe on Vega to my eye. I observe with my left eye. The reason why I was viewing that yellow fringe when targets were placed on the left edge was due to my wrong eye placement. As I find a bit uncomfortable to rotate my left eye to the left edge of the fov, I was moving my head in order to observe the left edge from a more straight direction, without realising that this different angle could actually introduce CA. I actually thought it was a feature of doublets refractors. The same minor colour fringe is noticeable when targets are moved on the top and bottom edges. To my eye both the eyepieces did not show astigmatism at the edge or spherical aberration. I could not spot anomalies in light transmission throughout the field of view either.
Saturn	-	Planet	28.8x, 30x + VIP ~3x	On Saturn there was no coloured fringe at all to my eye. On axis, there was no coloured fringe on  Saturn to my eye. To my eye the Docter shows more contrast than the Delos. Light scatter also seems a bit more controlled in the Docter. 
NGC869/ 884	Per	Opn CL	28.8x, 30x	Double cluster. Again more faint stars were well visible with the Docter via direct vision. Smaller stars. Superb view.
Alpha	Her	Dbl Star	28.8x, 30x + VIP 2x	Rasalhague. The two stars were slightly separated on axis with both the eyepieces and almost joined together at the very edge with the Docter highlighting the presence of a bit of angular magnification distortion (AMD).
				
Date	12/08/2016a			
Time	17:30-18:30			
Location	Cambridge, UK			
Altitude	12m			
Temperature	25C (W 27 km/h)			
Seeing	3 - Moderate seeing			
Transparency	5 - Clear			
Telescopes	Tele Vue 60 F6			
Eyepieces	Docter 12.5mm, Delos 12mm, PM2.5x			
Filters	Lunt Herschel Wedge, Solar Continuum filter			
Target	Cons	Type	Power	Notes
Sun	-	Star	28.8x, 30x, 72x, 75x + SCF	Again, seven little sunspots were visible with the Docter, four of these were paired. The Delos showed five suspots and missed the pairs. Granulation was more evident with the Docter.
				
Date	12/08/2016b			
Time	21:00-22:30			
Lunar Phase	Waxing Gibbous 78%			
Location	Cambridge, UK			
Altitude	12m			
Temperature	24C (W 20 km/h)			
Seeing	3 - Moderate seeing			
Transparency	5 - Clear			
Telescopes	Tele Vue 60 F6			
Eyepieces	Docter 12.5mm, Delos 12mm, Baader VIP 2.0x			
Target	Cons	Type	Power	Notes
Mars	-	Planet	28.8x, 30x + VIP ~3x	Angular diameter: 11.9, central-meridian longitude: 88 degrees. Low from the horizon. Quite small for this aperture and magnification. However, a hint of Mare Acidalium was visible in the North hemisphere with the Docter. In the Delos, the same feature was a bit less noticeable.
Saturn	-	Planet	28.8x, 30x + VIP ~3x	Higher than Mars from the horizon. The Docter showed one belt and a clear hint of Cassini's division on the outer rings. The shadow of the planet on the rings was also detectable. The image was very sharp. In the Delos, the belt was detectable but the image was somehow less sharp. This was sufficient for not seeing any Cassini's division or the shadow visible with the Docter.
Moon	-	Satellite	28.8x, 30x + VIP ~3x	Observing the Moon with the Docter is true passion: it was superb. The image was just pure and perfect. It reminded me of the panoramic view of Saturn in the film {\it Interstellar}. It was as if I was a spectator in space and just observing the Moon directly. Its view was intense and vivid I would say. The Docter showed a whiter and sharper Moon than the Delos. The Docter showed noticeably less light scatter, showing a black background. The coloured ring at the field stop in the Docter is smaller (half I would say) than the ring at the field stop in the Delos. In the Delos the view of the Moon was beautiful, no doubt, but to me, it didn't reveal the same passion and feeling of reality that was delivered by the Docter. The Delos was like watching a pianist playing Beethoven in a very accurate and precise way. The Docter was like forgetting the pianist and just going deeply inside Beethoven's emotions while he was composing.
Epsilon	Boo	Dbl Star	28.8x, 30x + VIP ~3x	Izar. In both the eyepieces the companion was lying on the first diffraction ring. Diffraction rings were smaller in the Docter.
Alpha	UMi	Dbl Star	28.8x, 30x + VIP ~3x	Polaris. Beautiful double star with a faint companion. This was noticeable with the Docter, but just detectable with some difficulty with the Delos. Again, the diffraction rings seemed smaller with the Docter. No astigmatism with either eyepiece.
Zeta	UMa	Mlt Star	28.8x, 30x + VIP ~3x	Mizar and Alcor. Nice system of stars. Easily seen with both the eyepieces. No special notes.
				
Date	25/08/2016			
Time	21:00-0:00			
Lunar Phase	Waning Crescent 39%			
Location	Venice Area, Italy			
Altitude	8m			
Temperature	24C (E 0 km/h)			
Seeing	1 - Perfect seeing			
Transparency	5 - Clear			
Darkness	19			
Telescopes	SW 200 F6			
Eyepieces	ES 30mm, Docter 12.5mm, Vixen SLV 9mm, Baader VIP 2.0x			
Target	Cons	Type	Power	Notes
M11	Sct	Opn CL	40x, 96x, 192x	Nice to observe. Many stars were visible. High powers supported.
M15	Peg	Glob CL	40x, 96x, 192x	Fuzzy. No detail.
M2	Aqr	Glob CL	40x, 96x, 192x	Resolved stars on the borders.
M72	Aqr	Glob CL	40x, 96x	Almost invisible.
M34	Per	Opn CL	40x, 96x	Great view.
M30	Cap	Glob CL	96x	Visible but no granulation.
M31	And	Galaxy	40x, 96x	Large nucleus at 96x.
M32	And	Galaxy	40x, 96x	Obvious at 96x.
Uranus	-	Planet	40x, 96x, 192x, 266x	Grey disc. No feature.
Neptune	-	Planet	40x, 96x, 192x, 266x	Blue disc. No feature.
Gamma	And	Dbl Star	40x, 96x	Almaak.
				
Date	26/08/2016			
Time	21:00-23:00			
Lunar Phase	Waning Crescent 29%			
Location	Venice Area, Italy			
Altitude	8m			
Temperature	26C (E 0 km/h)			
Seeing	1 - Perfect seeing			
Transparency	5 - Clear			
Darkness	18.8			
Telescopes	SW 200 F6			
Eyepieces	Docter 12.5mm, Vixen SLV 9mm, Baader VIP 2.0x			
Target	Cons	Type	Power	Notes
M3	CVn	Glob CL	96x, 192x	Resolved some star.
M5	Ser	Glob CL	96x	Resolved some star.
M13	Her	Glob CL	96x, 192x	Great view due to the high position in the sky. A few stars were resolved. Majestic at 192x.
M92	Her	Glob CL	96x	Great view. Resolved a few stars.
Saturn	-	Planet	96x, 192x, 266x	Cassini division and equatorial belt were visible. Titan, Thetis and Rhea were also visible. 
Mars	-	Planet	96x, 192x	Syrtis Major was detectable. Mars was around 10 arcsec now.
Venus - Jupiter	-	Planet	96x	Very low in the sky. The two planets were overlapped.
Alpha	UMi	Dbl Star	96x	Easy split. Nice. 
Alpha	UMa	Dbl Star	96x	Easy split. Nice. 
Gamma	UMa	Mlt Star	96x	Nice view.
				
Date	28/08/2016			
Time	21:00-23:00			
Lunar Phase	Waning Crescent 10%			
Location	Venice Area, Italy			
Altitude	8m			
Temperature	21C (E 0 km/h)			
Seeing	1 - Perfect seeing			
Transparency	4 - Partly clear			
Darkness	18.71			
Telescopes	SW 200 F6			
Eyepieces	ES 30mm, Docter 12.5mm, Baader VIP 2.0x			
Filters	Astronomik OIII			
Target	Cons	Type	Power	Notes
M11	Sct	Opn CL	96x, 192x	Wild duck cluster. I think I could identify the duck shape at 192x: stars make a contour of a duck shape. The right wing is quite distinct on the left.
M2	Aqr	Glob CL	96x, 192x	Resolved some star.
NGC7009	Aqr	Pln Neb	192x + OIII	Saturn nebula. Disk shape, ring with averted vision.
NGC6790	Aql	Pln Neb	192x + OIII	Star shape. Brightness largely enhanced with OIII filter.
M22	Sgr	Glob CL	96x, 192x	Granulation was detectable with direct vision.
Gamma	Del	Dbl Star	96x	Due to light pollution the two stars showed the same colour.
NGC6934	Del	Glob CL	96x	No star was resolved. It appeared as a little cloud.
Gamma	And	Dbl Star	96x	Almaak.
M31	And	Galaxy	40x	Core well visible. No other detail.
M32	And	Galaxy	40x	Easily detectable.
NGC869/ 884	Per	Opn CL	40x, 96x, 192x	It appeared in the same field with the Docter. Somehow I preferred the view delivered by the ES30 as it included more surrounding context. The red star located between the two clusters was easily visible.Great view.
				
Date	31/08/2016a			
Time	0:10-1:40			
Lunar Phase	Waning Crescent 0%			
Location	Venice Area, Italy			
Altitude	8m			
Temperature	20C (E 8 km/h)			
Seeing	2 - Slight undulations			
Transparency	5 - Clear			
Darkness	19.01			
Telescopes	SW 200 F6			
Eyepieces	ES 30mm, Docter 12.5mm, Vixen 5mm SLV, Baader VIP 1.5x			
Target	Cons	Type	Power	Notes
Uranus	-	Planet	144x, 375x	Grey - green disk. No moon was detected. 
Neptune	-	Planet	144x, 375x	Disk was distinct but no sign of Triton. Not sure if I manage to spot this faint moon.
M45	Tau	Opn CL	96x	The ES 30mm shows a better view with its 2 degrees afov.
M38	Aur	Opn CL	96x	Stars nicely resolved.
M36	Aur	Opn CL	96x	Stars nicely resolved.
Zeta	Per	Dbl Star	96x	Lovely double star. One faint, one bright. One of my favourite.
				
Date	31/08/2016b			
Time	21:00-1:00			
Lunar Phase	Waning Crescent 0%			
Location	Venice Area, Italy			
Altitude	8m			
Temperature	19C (E 0 km/h)			
Seeing	1 - Perfect seeing			
Transparency	5 - Clear			
Darkness	19.1			
Telescopes	SW 200 F6			
Eyepieces	ES 30mm, Docter 12.5mm, Vixen SLV 5mm, Baader VIP 1.5x, 2.0x			
Filters	Astronomik OIII			
Target	Cons	Type	Power	Notes
M55	Sgr	Glob CL	96x, 192x	Finally spot this globular clusters which is quite low even from here near Venice. Not an easy target under a light polluted sky. M75 is trivial in comparison. I reached this target from the teapot and from the {\it arrow} of 4 stars located between Capricorn and Sagittarius. The latter way was easier. The arrow is just in between M75 and M55 and is visible with the finder. M55 is very elusive from here: just detectable at 96x with averted vision, easier at 196x with direct vision. Only few faint stars were detected.
M75	Sgr	Glob CL	96x	Some granulation was visible. The target was much easier than M55.
NGC6818	Sgr	Pln Neb	96x, 192x +/- OIII	Little Gem nebula. It looked very good at 96x and 192x. An OIII improved noticeably at high power enhancing a kind of little ring.
NGC6822	Sgr	Galaxy	96x, 192x	Barnard's Galaxy. {\color{red} Invisible}.
M30	Cap	Glob CL	96x	Some granulation was visible. Really nice!
M72	Aqr	Glob CL	96x	Although not easy, M72 was still feasible (and much easier that M55!).
M2	Aqr	Glob CL	96x	M2 was amazing showing a rich portion of stars.
M15	Peg	Glob CL	96x, 192x	M15 was glorious! So many stars!
NGC7293	Aqr	Pln Neb	96x, 192x +/- OIII	Helix nebula. Not sure I spotted this target. It appeared like a bright start with an OIII filter.
Neptune	-	Planet	144x, 375x	No moon was detectable.
Uranus	-	Planet	144x, 375x	No moon was detectable.
M33	Tri	Galaxy	40x	Barely visible. Grey smudge.
				
Date	02/09/2016			
Time	12:00-12:45			
Location	Venice Area, Italy			
Altitude	8m			
Temperature	27C (NE 3 km/h)			
Seeing	1 - Perfect seeing			
Transparency	5 - Clear			
Telescopes	Tele Vue 60 F6			
Eyepieces	Vixen SLV 9mm, 5mm, Bresser SA 2x			
Filters	Lunt Herschel Wedge, Solar Continuum filter			
Target	Cons	Type	Power	Notes
Sun	-	Star	80x, 144x	Group of 8 medium size sunspots in the Southern hemisphere. Each of them was surrounded by penumbra region. Eyelashes in penumbra regions were visible at 80x and 144x. On a slightly separated group, a large facula was detectable.
				
Date	07/09/2016			
Time	0:30-2:40			
Lunar Phase	Waxing Crescent 33%			
Location	Venice Area, Italy			
Altitude	8m			
Temperature	19C (NE 10 km/h)			
Seeing	2 - Slight undulations			
Transparency	5 - Clear			
Darkness	19.2			
Telescopes	SW 200 F6			
Eyepieces	ES 30mm, Docter 12.5mm, Baader VIP 2.0x			
Target	Cons	Type	Power	Notes
NGC253	Scl	Galaxy	96x, 192x	Sculptor galaxy. South of Beta Cet (Diphda). {\color{red} Invisible}. sb: 13.42.
NGC288	Scl	Glob CL	96x, 192x	South of Beta Cet (Diphda). {\color{red} Invisible}. sb: 13.26.
NGC246	Cet	Pln Neb	96x, 192x	Skull nebula. North of Beta Cet (Diphda). {\color{red} Invisible}. sb: 14.38.
Ceres	-	Asteroid	96x, 192x	Dwarf planet. Quite bright. Not sure a disk was detectable at 192x or the increased shape was simply the effect of Airy disk.
M77	Cet	Galaxy	96x	Cetus A. Clearly visible as a little cloud.
NGC1055	Cet	Galaxy	96x	Fuzzy shape. sb: 12.90.
M33	Tri	Galaxy	40x	Located near the zenith, it showed a large faint shape with undefined contour.
NGC536	And	Galaxy	40x	Fuzzy shape. sb: 12.83.
NGC529	And	Galaxy	40x	Fuzzy shape.
NGC513	And	Galaxy	40x	Fuzzy shape. sb: 11.83.
NGC517	Psc	Galaxy	40x	Fuzzy shape. sb: 12.50.
NGC499	Psc	Galaxy	40x	Fuzzy shape. sb: 12.68.
NGC495	Psc	Galaxy	40x	Fuzzy shape. sb: 13.04.
				
Date	08/09/2016			
Time	0:30-1:30			
Lunar Phase	Waxing Crescent 42%			
Location	Venice Area, Italy			
Altitude	8m			
Temperature	19C (NE 7 km/h)			
Seeing	2 - Slight undulations			
Transparency	5 - Clear			
Darkness	19			
Telescopes	SW 200 F6			
Eyepieces	ES 30mm, Docter 12.5mm			
Target	Cons	Type	Power	Notes
NGC410	Psc	Galaxy	40x, 96x	Fuzzy shape. sb: 12.48.
NGC499	Psc	Galaxy	40x, 96x	Fuzzy shape. sb: 12.68.
NGC513	And	Galaxy	40x, 96x	Fuzzy shape. sb: 11.83.
NGC392	Psc	Galaxy	40x, 96x	Fuzzy shape. sb: 12.21.
				
Date	09/09/2016a			
Time	0:30-1:30			
Lunar Phase	First Quarter 52%			
Location	Venice Area, Italy			
Altitude	8m			
Temperature	22C (NE 0 km/h)			
Seeing	1 - Perfect seeing			
Transparency	5 - Clear			
Darkness	19			
Telescopes	SW 200 F6			
Eyepieces	ES 30mm, Docter 12.5mm			
Target	Cons	Type	Power	Notes
NGC752	And	Opn CL	40x, 96x	Wonderful open cluster near Gamma And (Almaak).
NGC890	Tri	Galaxy	40x, 96x	Very faint.
NGC925	Tri	Galaxy	40x, 96x	Very faint.
NGC969	Tri	Galaxy	40x, 96x	Very faint.
NGC891	And	Galaxy	40x, 96x	Very faint.
NGC956	And	Opn CL	40x, 96x	Not very interesting. Few stars.
M34	Per	Opn CL	40x, 96x	Spiral cluster. Lovely.
M36	Aur	Opn CL	96x	Nice one at 2mm e.p.
M37	Aur	Opn CL	96x	My favourite of the trio. Nice one at 2mm e.p.
M38	Aur	Opn CL	96x	Nice one at 2mm e.p.
M77	Cet	Galaxy	40x, 96x	Easily visible.
NGC1055	Cet	Galaxy	40x, 96x	Faint.
M74	Psc	Galaxy	40x, 96x	{\color{red} Invisible}. sb: 14.13. I have no idea how Messier spotted this galaxy. Might he have spotted NGC660 instead?
NGC660	Psc	Galaxy	40x, 96x	Faint.
				
Date	09/09/2016b			
Time	21:20-23:30			
Lunar Phase	First Quarter 52%			
Location	Venice Area, Italy			
Altitude	8m			
Temperature	23C (SSE 21 km/h)			
Seeing	2 - Slight undulations			
Transparency	5 - Clear			
Darkness	18.8			
Telescopes	SW 200 F6			
Eyepieces	ES 30mm, Docter 12.5mm, Baader VIP 2x			
Filters	Astronomik OIII			
Target	Cons	Type	Power	Notes
M13	Her	Glob CL	96x	A bit difficult with the moon out. Some star were resolved.
Mel179	Oph	Opn CL	96x	Summer Beehive cluster. Close to the Moon.
M57	Lyr	Pln Neb	96x +/- OIII	Ring easily detectable. 
M56	Lyr	Opn CL	96x	Dense open cluster. I could not resolve the stars due to the Moon. 
Saturn	-	Planet	96x, 192x	The seeing did not allow 192x. No Cassini division.
Mars	-	Planet	96x, 192x	Too small and low to see features.
Moon	-	Satellite	96x, 192x	Lovely view at 96x.
				
Date	23/09/2016			
Time	23:00-1:40			
Lunar Phase	Waning Crescent 33%			
Location	Cambridge, UK			
Altitude	12m			
Temperature	9C (NW 5 km/h)			
Seeing	1 - Perfect seeing			
Transparency	5 - Clear			
Darkness	19.95			
Telescopes	Tele Vue 60 F6			
Eyepieces	Panoptic 24mm, Docter 12.5mm, Vixen SLV 9mm, 5mm, Baader VIP 2.0x			
Target	Cons	Type	Power	Notes
NGC869/ 884	Per	Opn CL	15x, 40x	Double cluster. Visible with naked eye. Great view! Faint stars were visible near the centre of each cluster at 40x.
NGC6992	Cyg	SN Rem	15x + OIII	Veil nebula. Grey shape, but not well defined. Still great to be able to see this from home!
NGC6960	Cyg	SN Rem	15x + OIII	Veil nebula. Grey shape, but not well defined. Still great to be able to see this from home!
NGC7000	Cyg	Neb	15x + OIII	North America nebula. Fuzzy North American continent was detectable.
M74	Psc	Galaxy	15x	Extremely faint grey area. Averted vision and jiggling telescope.
M31	And	Galaxy	15x	Visible with naked eye. No peripheral part was visible.
M32	And	Galaxy	15x	Small smudge. 
M110	And	Galaxy	15x	Small smudge. 
M33	Tri	Galaxy	15x	This actually show more area extension than M31. No detail.
NGC604	Tri	Neb	15x +/- OIII	Nebula inside M33. I tried to spot this nebula, but I did not succeed. It was {\color{red} invisible}.
M77	Cet	Galaxy	15x, 40x	Cetus A. Easy to spot. SB seemed similar to M81.
Moon	-	Satellite	72x, 90x	Lovely and crisp view of this waning crescent Moon.
Alpha	Aur	Star	90x	Capella. Performed a star test using this star. Symmetric concentric rings were visible inside and outside focus. These patterns seemed nearly identical between the two opposite focus positions. In focus, the star showed a very tiny ring which was almost not detectable.
				
Date	02/10/2016			
Time	21:00-22:20			
Lunar Phase	Waxing Crescent 6%			
Location	Cambridge, UK			
Altitude	12m			
Temperature	8C (NW 3 km/h)			
Seeing	1 - Perfect seeing			
Transparency	5 - Clear			
Darkness	19.61			
Telescopes	Tele Vue 60 F6			
Eyepieces	Panoptic 24mm, Docter 12.5mm, Vixen SLV 5mm			
Filters	Astronomik OIII			
Target	Cons	Type	Power	Notes
M33	Tri	Galaxy	15x, 28.8x +/- OIII	Faint and extended shape. No trace of NGC604 with OIII filter.
NGC6992	Cyg	SN Rem	15x + OIII	Visible but not much contrast.
NGC6960	Cyg	SN Rem	15x + OIII	Visible but not much contrast.
NGC7000	Cyg	Neb	15x + OIII	Undefined patches. Cygnus is now right above Cambridge from my house.
NGC869/ 884	Per	Opn CL	15x, 28.8x	Great view at both the magnifications. Faint stars visible at the core of NGC869. Lovely!
IC1848	Cas	Neb	15x + OIII	Soul nebula. Not sure about nebulosity.
IC1805	Cas	Neb	15x + OIII	Heart nebula. Patches of nebulosity near the core. 
NGC896	Cas	Neb	15x + OIII	I believe I saw the patch corresponding to NGC896 located at West of IC1805. 
NGC281	Cas	CL+Neb	15x, 28.8x + OIII	Pacman nebula. Distinct nebulosity, but no pacman shape.
NGC457	Cas	Opn CL	15x, 28.8x	Dragonfly cluster. Nice open cluster with two bright stars at its base.
M57	Lyr	Pln Neb	28.8x, 40x, 72x + OIII	Ring nebula. Ring easily visible with averted vision at all magnifications, but somehow nicer at 72x.
Epsilon	Lyr	Dbl star	72x	Double double. Tight double stars very detectable for both Epsilon 1 and 2. 
				
Date	05/10/2016			
Time	21:00-22:15			
Lunar Phase	Waxing Crescent 27%			
Location	Cambridge, UK			
Altitude	12m			
Temperature	10C (ENE 14 km/h)			
Seeing	3 - Moderate seeing			
Transparency	5 - Clear			
Darkness	19.59			
Telescopes	Tele Vue 60 F6			
Eyepieces	Panoptic 24mm, Docter 12.5mm, Vixen SLV 9mm, 5mm			
Filters	Astronomik UHC			
Target	Cons	Type	Power	Notes
NGC7662	And	Pln Neb	15x, 28.8x, 40x, 72x +/- UHC	Blue snowball. Easy to find as it is closed to the naked eye stars: Lambda, Kappa, and Iota And. Bright target (8.30 mag). 1800 ly away. It was visible at 15x without filter and appeared like a faint dot. At 40x and even better at 72x, it showed a circular shape. The colour was grey. An UHC filter helps a bit but it is not required. At 72x, I had the impression to recognise a soft ring shape with averted vision.
NGC7686	And	Opn CL	15x, 28.8x 40x	It is close to NGC7662 (Blue snowball) and easy to find from the line Kappa-Lambda And towards Lambda And. It's a little open cluster without major details. Two bright stars surrounded by some dimmer stars and other very dim stars. I think I counted about 10-15 stars.
M31	And	Galaxy	28.8x	Andromeda Galaxy. I used this as a pointer towards NGC278, NGC185, and NGC147. At 28.8x its core was bright and the very core was much brighter. In the second part of my session, there was enough extension to detect how large this target is.
NGC278	Cas	Galaxy	28.8, 40x	SB: 12.20. From M31, move towards Omicron and Pi Cas. The correct position is not difficult to find from Omicron Cas. Not sure if I saw this threshold target for my 60mm. If I did, it appeared like a faint smooth dot (so not exactly as defined as stars are) and located near a star. It was only visible with averted vision and the detection was impossible to hold. The trick was done by moving gradually from direct vision to averted until the most sensitive part of the rods allowed the detection. To me it worked at about 20 degrees away from direct vision. Still, I was not able to hold the image.
				
Date	10/10/2016			
Time	21:10-22:20			
Lunar Phase	Waxing Gibbous 66%			
Location	Cambridge, UK			
Altitude	12m			
Temperature	6C (NNE 5 km/h)			
Seeing	3 - Moderate seeing			
Transparency	5 - Clear			
Darkness	19.4			
Telescopes	Tele Vue 60 F6			
Eyepieces	Vixen SLV 9mm, 5mm			
Filters	Astronomik UHC, OIII			
Target	Cons	Type	Power	Notes
M76	Per	Pln Neb	40x, 72x +/- UHC	Little Dumbbell. Visible with AV without filter and with DV with filter. It looked like an irregular cloud.
NGC663	Cas	Opn CL	40x, 72x	Nice medium size open cluster. I always wonder whether Messier confused M103 with this cluster. It shows about 20 stars.
NGC654	Cas	Opn CL	40x, 72x	Smaller than NGC663. 5-8 faint stars. 
NGC659	Cas	Opn CL	40x, 72x	Smaller than NGC663. 5-6 faint stars. 
M103	Cas	Opn CL	40x, 72x	8-9 faint stars were detectable.
NGC1502	Cam	Opn CL	40x	Lovely open cluster at the bottom of the Cam star chain. Star hopping from CS/CE Cam stars, through the false double star HIP 17342. The latter is a 5.7mag orange with a close 8.40mag blue/grey star. NGC1502 showed about 10-15 stars. The box inside might have more at larger apertures.
NGC1501	Cam	Pln Neb	40x +/- OIII	I tried this in the past unsuccessfully. It is described as a 13 visual magnitude target (SB:12.42), beyond the limit of this telescope. At 40x without filter it was completely invisible. With OIII filter a faint filled little circle typical for planetary nebulae at low power was detectable with DV. I repeated the path 4 times from NGC1502: HIP19139, UV Cam, HIP19222, so the jump to HIP19314 and the planetary nebula is slightly at the east. Not sure why it is reported as dark as a 13 mag target. It was definitely there.
				
Date	22/11/2016			
Time	21:45-23:00			
Lunar Phase	Waning Crescent 31%			
Location	Cambridge, UK			
Altitude	12m			
Temperature	7C (SSE 10 km/h)			
Seeing	3 - Moderate seeing			
Transparency	5 - Clear			
Darkness	19.6			
Telescopes	Tele Vue 60 F6			
Eyepieces	Panoptic 24, Docter 12.5, Vixen SLV 9mm, 5mm			
Filters	DGM NPB, Astronomik OIII			
Target	Cons	Type	Power	Notes
M42	Ori	Neb	15x, 28.8x +/- DMG NPB or OIII	The DMG NPB shows far more nebula extension than the OIII or filterless. Stars are both green and red, but the nebula's colour is quite neutral. This filter seems very promising. 
Beta	Ori	Dbl Star	28.8x, 40x, 72x	Companion detected at 40x. Easy at 72x. Invisible at 28.8x.
Sigma	Ori	Dbl Star	28.8x, 40x	6 stars visible. 
Cr69	Ori	Opn CL	28.8x, 40x	Open cluster surrounding Meissa. Lovely at 28.8x.
M35	Gem	Opn CL	15x, 28.8x, 40x	Lovely view at all magnifications.
M36	Aur	Opn CL	15x, 28.8x, 40x	Quite nice at 40x although this requires darker skies.
M37	Aur	Opn CL	15x, 28.8x, 40x	At 40x many stars were visible, particularly using AV.
M38	Aur	Opn CL	15x, 28.8x, 40x	Very nice to see this again.
M45	Tau	Opn CL	15x, 28.8x	At 28.8x they almost fit the fov of the Docter. I had a feeling to spot some nebula around Merope and the other two brightest stars.
Mel25	Tau	Opn CL	15x, 28.8x	Very suggestive at 28.8x.
M81	UMa	Galaxy	28.8x	This is not well placed at the moment, but it is still detectable as a round grey patch. 
M82	UMa	Galaxy	28.8x	Not well placed at the moment, but still detectable as a grey line.
				
Date	14/12/2016			
Time	19:25-21:00			
Lunar Phase	Waning Gibbous 98%			
Location	Cambridge, UK			
Altitude	12m			
Temperature	8C (SSE 14 km/h)			
Seeing	3 - Moderate seeing			
Transparency	5 - Clear			
Telescopes	Tele Vue 60 F6			
Eyepieces	Docter 12.5, Zeiss zoom			
Target	Cons	Type	Power	Notes
Moon	-	Satellite	28.8x, 14.3x-53.7x	It is not completely parfocal throughout the zoom, but the shift is minimal. It comes to focus on my TV60 using a TV Everbrite diagonal with the coarse focuser all in, and the fine focuser about five millimeters out. This scope (f.l. 360mm) shows some field curvature with the Zeiss zoom. At low power (25.1x) chromatic aberration is noticeable in the last 15% of the field of view. This might appear higher on this telescope because of the field curvature. At this magnification it is quite difficult to discriminate the aberrations because they might overlap. In this first impression some rectilinear distortion is also there. Further tests are certainly needed. As soon as one zooms in, these aberrations largely decrease to an almost absent level though. Due to the full moon, I couldn't really test it on a star field, but it seemed to me that the aberrations at the last 15% of the fov described for the Moon are also visible for stars only at very low power while they rapidly decrease when zooming in. The colour rendition was neutral to my eye. I could not distinguish the Zeiss colour tone from the colour rendition of the Docter. When set at the equivalent magnification, the Zeiss seemed to show less light scattering then the Docter on the Moon. This was quite impressive as I consider the light scatter in the Docter very low. At this magnification I observed the Northern craters which were the only ones showing some shadows. Despite having swapped the two eyepieces for nearly one hour, the details shown by these two eyepieces on the Moon were essentially matching. My first impression is that this eyepiece seems to be very sharp on axis and colour rendition is excellent. The zoom function is a joy to use in my opinion. I really enjoyed to zoom in and out catching more details on the Moon surface. Zooms are not normal fix length eyepieces though. They require some time to get familiar with them. In my opinion, the Zeiss zoom is not a cake for everyone. I believe that it has certain features that not necessarily everyone will like. It is not as user friendly as the Docter or the Panoptic 24 or Vixens SLV for instance. Eye placement is easier than the Delos in my opinion. Eye relief is good, but not as comfortable as Docter / Delos eyepieces. Therefore, I don't think thick spectacles wearers will like it. The FC (and chromatic aberration if this is independent) at low power is not something everyone will accept. It might be due that the FC is largely associated to the short focal length of the TV60. I will test the Zoom with my 8" dobson as soon as I can. I think this is a great zoom for those interested in observing on axis (like me), but I believe that people looking at the all fov might be disappointed at low power if using a very short telescope.
				
Date	21/12/2016			
Time	18:30-23:20			
Lunar Phase	Waning Crescent 39%			
Location	Venice Area, Italy			
Altitude	8m			
Temperature	5C (NNE 0 km/h)			
Seeing	2 - Slight undulations			
Transparency	5 - Clear			
Telescopes	SW 200mm F6			
Eyepieces	ES30, Docter 12.5, Zeiss zoom 25.1-6.7, Baader VIP 1.5x			
Filters	DGM NPB			
Target	Cons	Type	Power	Notes
M45	Tau	Opn CL	40x, 96x	Lovely sight with the ES30 or the Docter UWA. I think the Docter showed some nebulosity around the brightest stars.
M35	Gem	Opn CL	47.8x-179.1x, 142x	Great view with the zoom. Many stars popped up. This target was just amazing with the Docter + VIP 1.5x (142x).
M36	Aur	Opn CL	47.8x-179.1x	Great view with the zoom. Many stars popped up.
M37	Aur	Opn CL	47.8x-179.1x	Great view with the zoom. Many stars popped up.
M38	Aur	Opn CL	47.8x-179.1x	Great view with the zoom. Many stars popped up.
M41	CMa	Opn CL	96x, 47.8x-179.1x	Nice open cluster. Medium power recommended.
M77	Cet	Galaxy	47.8x-179.1x	Easily spotted with dv.
M42	Ori	Neb	40x, 96x, 47.8x-179.1x, 142x +/- DGM	Lovely sight. Clouds of gas of different intensity were visible. Border also showed high contrast. Trapezium: E and F stars were visible with dv. The DGM is just perfect on this target.
M43	Ori	Neb	40x, 96x, 47.8x-179.1x, 142x +/- DGM	Nebula detected with filter and dv.
NGC1647	Tau	Opn CL	47.8x-179.1x	Medium power recommended.
NGC1514	Tau	Pln Neb	96x, 47.8x-179.1x	Just detected next to the star.
NGC2392	Gem	Pln Neb	96x, 47.8x-179.1x	The filter enhanced the view, but not detail.
Alpha	CMa	Dbl star	96x, 47.8x-179.1x, 142x, zoom+vip	No split. Sirius was just too bright.
Sigma	Ori	Mlt star	47.8x-179.1x	Lovely sight.
Beta	Ori	Dbl star	96x, 47.8x-179.1x, 142x, zoom+vip	Easy split.
NGC2244	Mon	CL+Neb	40x, 96x	Rosette neb and Satellite cluster.
				
Date	24/12/2016			
Time	18:30-0:20			
Lunar Phase	Waning Crescent 21%			
Location	Venice Area, Italy			
Altitude	8m			
Temperature	6C (WSW 19 km/h)			
Seeing	2 - Slight undulations			
Transparency	5 - Clear			
Telescopes	SW 200mm F6			
Eyepieces	ES30, Docter 12.5, Zeiss zoom 25.1-6.7, Baader VIP 1.5x			
Filters	DGM NPB			
Target	Cons	Type	Power	Notes
Venus	-	Planet	96x, 47.8x-179.1x	Half planet was visible. Dark area near the terminator. No feature on the atmosphere.
Mars	-	Planet	96x, 47.8x-179.1x	Very small. Slightly darker feature near the centre of the planet.
Epsilon	Lyr	Dbl star	96x, 47.8x-179.1x	Double double. Both stars were split at about 100x.
M57	Lyr	Pln Neb	96x, 47.8x-179.1x +/- DGM	Ring nebula. Ring structure visible with DV at all mag.
Alpha	UMi	Dbl Star	40x	Easy split.
M29	Cyg	Opn CL	96x	Cooling tower.
NGC6910	Cyg	Opn CL	96x	Nice little open cluster above Gamma Cyg (Sadr). I found this more beautiful than M29. Coloured stars.
M42	Ori	Neb	40x, 96x, 47.8x-179.1x, 142x +/- DGM	Clouds revealed more details with increase in magnification. Trapezium: E and F stars were visible with dv.
M43	Ori	Neb	40x, 96x, 47.8x-179.1x, 142x +/- DGM	Nebula detected with filter and dv.
NGC1977	Ori	Neb	40x, 96x, 47.8x-179.1x, 142x +/- DGM	Running man nebula. Easily visible with DV.
IC418	Lep	Pln Neb	47.8x-179.1x + DMG	Spirograph nebula. Easily visible with DV using the DMG. Round shape, no detail.
M35	Gem	Opn CL	47.8x-179.1x, 142x	Great view with the zoom. Many stars popped up. This target was just amazing with the Docter + VIP 1.5x (142x).
M41	CMa	Opn CL	96x, 47.8x-179.1x	Nice open cluster. Medium power recommended.
Alpha	CMa	Dbl star	96x, 47.8x-179.1x, 142x, zoom+vip	I think I spotted Sirius B this time. This target requires a small fov eyepiece. Sirius should be placed just outside the field stop in order to limit its glare. Sirius B appeared as a faint dot hidden in the rays coming from Sirius. I saw this dot with the Docter plus VIP first, but the Zoom plus VIP made this detection much easier due to the smaller fov.
NGC2244	Mon	Opn CL	40x, 96x, 47.8x-179.1x	Satellite cluster. The best starting point for open clusters in the area.
NGC2254	Mon	Opn CL	40x, 96x, 47.8x-179.1x	Very small open cluster. I barely detected at 96x. The zoom helped quite a lot.
NGC2251	Mon	Opn CL	40x, 96x, 47.8x-179.1x	Nice medium-small open cluster with some coloured stars.
NGC2264	Mon	CL+Neb	40x, 96x, 47.8x-179.1x	Cone nebula. I could not see the nebula, but focused on the Christmas tree.
Alpha	Gem	Dbl Star	96x	Castor. Easy split.
				
Date	29/12/2016			
Time	22:00-23:30			
Lunar Phase	New Moon 2%			
Location	Venice Area, Italy			
Altitude	8m			
Temperature	1C (ENE 8 km/h)			
Seeing	2 - Slight undulations			
Transparency	5 - Clear			
Telescopes	SW 200mm F6			
Eyepieces	ES30, Docter 12.5, Zeiss zoom 25.1-6.7			
Filters	DGM NPB			
Target	Cons	Type	Power	Notes
M36	Aur	Opn CL	96x	Ideal mag.
M37	Aur	Opn CL	96x	Ideal mag.
M38	Aur	Opn CL	96x	Ideal mag.
NGC1977	Ori	Neb	40x, 96x, 47.8x-179.1x +/- DGM	Neb around the star was evident.
M42	Ori	Neb	40x, 96x, 47.8x-179.1x +/- DGM	E and F were visible in the trapezium. Nebulosity was extended. Shades were visible with DV.
M43	Ori	Neb	40x, 96x, 47.8x-179.1x +/- DGM	Neb around the star was evident.
M41	CMa	Opn CL	47.8x-179.1x	Medium power.
M45	Tau	Opn CL	40x	Better with a wide field telescope, but still nice with the ES30.
NGC2362	CMa	Opn CL	47.8x-179.1x	Tau-Canis Majoris cluster. Medium small cluster near the dog tail. 
NGC2301	Mon	Opn CL	96x	Lovely cluster with a nice red star near the centre.
M50	Mon	Opn CL	96x	Heart-Shaped cluster. Medium size cluster on the line between Sirius and Procyon.
NGC2353	Mon	Opn CL	96x	Nice open cluster.
M47	Pup	Opn CL	96x	Medium bright cluster. One of the best in the sky.
M46	Pup	Opn CL	96x	Medium dim-ish cluster. It contains planetary nebula NGC2438.
NGC2438	Pup	Pln Neb	96x, 47.8x-179.1x +/- DGM	Invisible without filter. With filter, a ring shape was detectable with AV. Quite impressive. High powers needed.
NGC2396	Pup	Opn CL	96x	Small open cluster next to the double star HIP36251A.
HIP36251A	Pup	Dbl Star	96x	Nice double star. Components are blue and orange. The orange appeared larger.
Alpha	Gem	Dbl Star	96x	Bright twins.
M67	Cnc	Opn CL	47.8x-179.1x	Interesting with the zoom. Easier to spot faint stars inside this cluster.
NGC2419	Lyn	Glob CL	47.8x-179.1x	Intergalactic Tramp. Star hopping from Alpha Gem (Castor). A bit faint small globular cluster.
				
Date	05/10/2016			
Time	21:30-23:10			
Lunar Phase	Waxing Crescent 38%			
Location	Cambridge, UK			
Altitude	12m			
Temperature	-3C (W 8 km/h)			
Seeing	2 - Slight undulations			
Transparency	5 - Clear			
Darkness	19.6			
Telescopes	Tele Vue 60 F6			
Eyepieces	Docter 12.5, Zeiss zoom 25.1-6.7, VIP 3x (before the diagonal)			
Target	Cons	Type	Power	Notes
NGC1977	Ori	Neb	28.8x, 14.3x-53.7x +/- VIP 3x	Running man nebula. Patch of nebulosity around the main star.
M42	Ori	Neb	28.8x, 14.3x-53.7x +/- VIP 3x	M42 was just gorgeous. I could split the 4 stars of the Trapezium at 14.3x. If the vip 2x is used be before the diagonal, the zeiss still reaches focus. It becomes an approx 3x barlow though. Again, M42 was still amazing up to about 150x. E and F stars in the trapezium were not visible. I tried at all the magnifications w/ and w/o VIP. They were not visible. At this point I believe they have a too low apparent magnitude for this sky transparency and aperture. North of the Trapezium I could see a very faint star. Another very faint star was visible near the three bright stars to the East of the Trapezium. Overall, the nebulosity was extended. Shades were visible with DV. The border of M42 next to the trapezium was clear and showed an obvious contrast even without a filter.
M43	Ori	Neb	28.8x, 14.3x-53.7x +/- VIP 3x	The nebulosity was noticeable.
Beta	Ori	Dbl Star	28.8x, 14.3x-53.7x +/- VIP 3x	The companion was easily detectable. 
Sigma	Ori	Mlt Star	28.8x, 14.3x-53.7x +/- VIP 3x	Lovely sight. Again the zoom was just great as it allowed to get the optimum separation.
M45	Tau	Opn CL	28.8x, 14.3x-53.7x +/- VIP 3x	FC at low power with the zoom, but this is largely due to this short focal length telescope. The image was just great.
M81	UMa	Galaxy	28.8x, 14.3x-53.7x +/- VIP 3x	The Docter revealed them nicely, but the zoom allowed me to study the best view for this target. In particular, higher magnifications showed this target much better. The oval shape was visible with DV.
M82	UMa	Galaxy	28.8x, 14.3x-53.7x +/- VIP 3x	As for M81. The elongated shape was visible with DV.
				
Date	21/05/2017			
Time	10:00-11:30			
Location	Cambridge, UK			
Altitude	12m			
Temperature	19C (SW 13 km/h)			
Seeing	3 - Moderate seeing			
Transparency	5 - Clear			
Telescopes	Tele Vue 60 F6			
Eyepieces	Vixen NPL 30mm, Zeiss zoom 25.1-6.7mm, Vixen SLV 5mm and 9mm, Vixen HR 2.4mm, PM2.5x			
Filters	Lunt Herschel Wedge, Solar Continuum filter			
Target	Cons	Type	Power	Notes
Sun	-	Star	30x, 40x, 72x, 100x, 150x +/- SCF	Finally two (little) sunspots and a bit of granulation in white light. It's quite windy over here, but time to time the seeing settles just enough to catch some detail. The 2.4mm Vixen HR (150x) without Baader SC filter also allowed me to see the penumbra regions of those sunspots in those stable moments. Curiously, neither the SLV 9mm (40x) or the 9mm + PM2.5x (100x) with Baader SC filter managed to. Detection on AR12657. I'm watching it with the Vixen SLV 9mm plus powermate and I can just hardly spot it. Also invisible with the Vixen NLV 30mm + Powermate 2.5x + Baader solar continuum (SC). This is using the Baader solar continuum filter. Removed the solar continuum filter and I cannot even find it. The little penumbra regions around the larger sunspots are also lost. Going back to the Vixen HR 2.4mm now. I may try holding the Baader Solar Continuum in front of the eyepiece. I've just tried my Vixen SLV 5mm. I can detect the position with difficulty just because I know where it is, but no real detail is visible. The Vixen HR 2.4mm now shows a fifth dot. They form a kind of square with an external dot on the right. No Solar continuum filter was used for both the tests. The HR now shows 6 spots. The Zeiss zoom 25.1-6.7mm using Baader VIP 1.25" nosepiece as 1.25" adapter shows the same at about 70x. The Vixen SLV 5mm now shows 5 spots, one of which seems more a penumbra region. Again no SC was used. Another little dot with the Vixen HR 2.4mm. The larger sunspots on the left might miss some details because the seeing has deteriorated and it's cloudy now. 